<CdStationMesureEauxSurface>;<CdPointEauxSurf>;<CdSupport>;<DateDebutOperationPrelbio>;<CdParametreEnv>;<RsParEnvOpPrelBio>;<CdUniteMesure>;<CdRqParEnvOpPrelBio>;<CdMethodeParEnvPrelBio>;<RefOperationPrelBio>;<CdStatutParEnvPrelBio>;<CdQualParEnvPrelBio>;<DateParEnvPrelBio>;<CdProducteur>;<FLG>
04104350;002;13;2017-11-07;7465;2;X;1;0;20190117172339-HB-473857;2;1;2017-11-07;13001898900017;FLG
04104350;002;13;2017-11-07;5473;3;X;1;0;20190117172339-HB-473857;2;1;2017-11-07;13001898900017;FLG
04104350;002;13;2017-11-07;1726;3;X;1;0;20190117172339-HB-473857;2;1;2017-11-07;13001898900017;FLG
04153200;131;13;2007-07-11;1417;4;0;1;0;20120903-HB-133340;2;1;2007-07-11;104;FLG
04123300;131;13;2007-08-28;1417;5;0;1;0;20120719-HB-117335;2;1;2007-08-28;22530001100015;FLG
04215600;131;13;2007-07-26;1417;8;0;1;0;20120903-HB-131932;2;1;2007-07-26;104;FLG
04215250;131;13;2007-07-26;1417;22;0;1;0;20120903-HB-131886;2;1;2007-07-26;104;FLG
04131400;131;13;2007-08-20;1415;3;X;1;0;20121122-HB-135126;2;1;2007-08-20;104;FLG
04131400;131;13;2007-08-20;1417;15;0;1;0;20121122-HB-135126;2;1;2007-08-20;104;FLG
04215500;131;13;2007-07-26;1417;26;0;1;0;20120903-HB-131840;2;1;2007-07-26;104;FLG
04131300;131;13;2007-08-20;1415;3;X;1;0;20121122-HB-135125;2;1;2007-08-20;104;FLG
04131300;131;13;2007-08-20;1417;6;0;1;0;20121122-HB-135125;2;1;2007-08-20;104;FLG
04147350;131;13;2007-07-12;1417;5;0;1;0;20120903-HB-133339;2;1;2007-07-12;104;FLG
04133050;131;13;2007-07-25;1417;6;0;1;0;20120903-HB-133414;2;1;2007-07-25;104;FLG
04154160;131;13;2007-07-12;1417;6;0;1;0;20120903-HB-133355;2;1;2007-07-12;104;FLG
04127970;131;13;2007-08-29;1417;7;0;1;0;20120719-HB-117372;2;1;2007-08-29;22530001100015;FLG
04119300;131;13;2007-08-01;1417;20;0;1;0;20120830-HB-125581;2;1;2007-08-01;104;FLG
04121400;131;13;2007-08-01;1415;3;X;1;0;20121122-HB-135132;2;1;2007-08-01;104;FLG
04121400;131;13;2007-08-01;1417;6;0;1;0;20121122-HB-135132;2;1;2007-08-01;104;FLG
04154400;131;13;2007-07-12;1417;5;0;1;0;20120903-HB-133308;2;1;2007-07-12;104;FLG
04122300;131;13;2007-08-01;1415;3;X;1;0;20121122-HB-135131;2;1;2007-08-01;104;FLG
04122300;131;13;2007-08-01;1417;2;0;1;0;20121122-HB-135131;2;1;2007-08-01;104;FLG
04154500;131;13;2007-07-12;1417;4;0;1;0;20120903-HB-133280;2;1;2007-07-12;104;FLG
04112700;131;13;2007-07-31;1417;7;0;1;0;20120830-HB-125598;2;1;2007-07-31;104;FLG
04119020;131;13;2007-08-01;1417;1,5;0;1;0;20120830-HB-125626;2;1;2007-08-01;104;FLG
04118600;131;13;2007-07-31;1417;3;0;1;0;20120830-HB-125651;2;1;2007-07-31;104;FLG
04153160;131;13;2007-08-01;1417;7;0;1;0;20120903-HB-133268;2;1;2007-08-01;104;FLG
04154080;131;13;2007-07-11;1417;5;0;1;0;20120903-HB-133341;2;1;2007-07-11;104;FLG
04154600;131;13;2007-07-12;1417;7;0;1;0;20120903-HB-133380;2;1;2007-07-12;104;FLG
04153800;131;13;2007-07-11;1417;4;0;1;0;20120903-HB-133389;2;1;2007-07-11;104;FLG
04154800;131;13;2007-07-11;1417;15;0;1;0;20120903-HB-133394;2;1;2007-07-11;104;FLG
04120000;131;13;2007-08-01;1415;3;X;1;0;20121122-HB-135127;2;1;2007-08-01;104;FLG
04120000;131;13;2007-08-01;1417;7;0;1;0;20121122-HB-135127;2;1;2007-08-01;104;FLG
04124200;131;13;2007-08-28;1415;3;X;1;0;20121122-HB-135129;2;1;2007-08-28;104;FLG
04124200;131;13;2007-08-28;1417;30;0;1;0;20121122-HB-135129;2;1;2007-08-28;104;FLG
04113100;131;13;2007-07-31;1415;3;X;1;0;20121122-HB-135130;2;1;2007-07-31;104;FLG
04113100;131;13;2007-07-31;1417;5;0;1;0;20121122-HB-135130;2;1;2007-07-31;104;FLG
04125670;131;13;2007-07-30;1415;3;X;1;0;20121122-HB-135133;2;1;2007-07-30;104;FLG
04125670;131;13;2007-07-30;1417;6;0;1;0;20121122-HB-135133;2;1;2007-07-30;104;FLG
04125800;131;13;2007-07-31;1415;3;X;1;0;20121122-HB-135134;2;1;2007-07-31;104;FLG
04125800;131;13;2007-07-31;1417;10;0;1;0;20121122-HB-135134;2;1;2007-07-31;104;FLG
04123900;131;13;2007-08-28;1417;6;0;1;0;20120719-HB-117317;2;1;2007-08-28;22530001100015;FLG
04127550;131;13;2007-07-28;1417;5;0;1;0;20120719-HB-117369;2;1;2007-07-28;22530001100015;FLG
04126800;131;13;2007-08-29;1417;6;0;1;0;20120719-HB-117378;2;1;2007-08-29;22530001100015;FLG
04123250;131;13;2007-08-28;1417;6;0;1;0;20120719-HB-117423;2;1;2007-08-28;22530001100015;FLG
04148587;131;13;2007-07-12;1417;12;0;1;0;20120903-HB-133330;2;1;2007-07-12;104;FLG
04150850;131;13;2007-07-11;1417;9;0;1;0;20120903-HB-133387;2;1;2007-07-11;104;FLG
04150970;131;13;2007-07-11;1417;3;0;1;0;20120903-HB-133273;2;1;2007-07-11;104;FLG
04150870;131;13;2007-07-11;1417;4;0;1;0;20120903-HB-133305;2;1;2007-07-11;104;FLG
04154240;131;13;2007-07-11;1417;3;0;1;0;20120903-HB-133388;2;1;2007-07-11;104;FLG
04119600;131;13;2007-07-31;1415;3;X;1;0;20121122-HB-135128;2;1;2007-07-31;104;FLG
04119600;131;13;2007-07-31;1417;4;0;1;0;20121122-HB-135128;2;1;2007-07-31;104;FLG
04113800;131;13;2007-09-12;1417;42;111;1;0;20120830-HB-125711;2;1;2007-09-12;104;FLG
04119000;131;13;2007-09-12;1417;58;111;1;0;20120830-HB-125732;2;1;2007-09-12;104;FLG
04103200;131;13;2007-09-11;1417;400;111;1;0;20120830-HB-125753;2;1;2007-09-11;104;FLG
04134700;131;13;2007-09-11;1417;105;111;1;0;20120903-HB-133311;2;1;2007-09-11;104;FLG
04123000;131;13;2007-09-11;1417;40;111;1;0;20120903-HB-133356;2;1;2007-09-11;104;FLG
04663024;003;10;2019-04-23;1725;1;X;1;0;20200326123709-HB-628834;2;1;2019-04-23;24440050300110;FLG
04663001;003;10;2019-04-23;1725;1;X;1;0;20200326123709-HB-628835;2;1;2019-04-23;24440050300110;FLG
04663025;003;10;2019-04-23;1725;1;X;1;0;20200326123709-HB-628839;2;1;2019-04-23;24440050300110;FLG
04663026;003;10;2019-04-23;1725;1;X;1;0;20200326123709-HB-628840;2;1;2019-04-23;24440050300110;FLG
04721001;004;10;2019-05-02;1725;1;X;1;0;20200407122521-HB-630054;2;1;2019-05-02;25850322600023;FLG
04721004;004;10;2019-05-02;1725;1;X;1;0;20200407122521-HB-630055;2;1;2019-05-02;25850322600023;FLG
04721002;004;10;2019-05-02;1725;1;X;1;0;20200407122521-HB-630056;2;1;2019-05-02;25850322600023;FLG
04379014;002;10;2017-07-13;1725;1;X;1;0;20191024101507-HB-603483;2;1;2017-07-13;20003424700011;FLG
04379015;002;10;2017-07-13;1725;1;X;1;0;20191024101507-HB-603484;2;1;2017-07-13;20003424700011;FLG
04108290;101;10;2018-06-04;1725;1;X;1;0;20190418094333-HB-562042;2;1;2018-06-04;13000610900057;FLG
04112700;101;10;2018-09-11;1725;1;X;1;0;20190418094333-HB-562043;2;1;2018-09-11;13000610900057;FLG
04113050;101;10;2018-09-11;1725;1;X;1;0;20190418094334-HB-562044;2;1;2018-09-11;13000610900057;FLG
04633009;003;10;2018-07-04;1725;1;X;1;0;20190418094334-HB-562047;2;1;2018-07-04;13000610900057;FLG
04108290;101;10;2019-05-21;1725;1;X;1;0;20200331143710-HB-629237;2;1;2019-05-21;13000610900057;FLG
04112700;101;10;2019-09-10;1725;1;X;1;0;20200331143711-HB-629238;2;1;2019-09-10;13000610900057;FLG
04113050;101;10;2019-09-10;1725;1;X;1;0;20200331143711-HB-629239;2;1;2019-09-10;13000610900057;FLG
04379000;004;10;2019-06-25;1725;1;X;1;0;20200331143711-HB-629241;2;1;2019-06-25;13000610900057;FLG
04601001;002;10;2019-07-09;1725;1;X;1;0;20200331143711-HB-629243;2;1;2019-07-09;13000610900057;FLG
04604001;002;10;2019-05-21;1725;1;X;1;0;20200331143711-HB-629244;2;1;2019-05-21;13000610900057;FLG
04604004;002;10;2019-07-02;1725;1;X;1;0;20200331143712-HB-629245;2;1;2019-07-02;13000610900057;FLG
04613008;003;10;2019-09-03;1725;1;X;1;0;20200331143712-HB-629246;2;1;2019-09-03;13000610900057;FLG
04636007;003;10;2019-07-30;1725;1;X;1;0;20200331143712-HB-629247;2;1;2019-07-30;13000610900057;FLG
04606000;003;10;2019-09-05;1725;1;X;1;0;20200430101635-HB-633077;2;1;2019-09-05;18450301900012;FLG
04602014;004;10;2019-09-09;1725;1;X;1;0;20200103155435-HB-610928;2;1;2019-09-09;25720009700026;FLG
04139300;002;10;2019-06-11;1725;1;X;1;0;20200312154618-HB-626313;2;1;2019-06-11;22850001300658;FLG
04143400;101;10;2019-06-25;1725;1;X;1;0;20200312154618-HB-626314;2;1;2019-06-25;22850001300658;FLG
04143550;101;10;2019-06-18;1725;1;X;1;0;20200312154618-HB-626315;2;1;2019-06-18;22850001300658;FLG
04143600;101;10;2019-06-18;1725;1;X;1;0;20200312154618-HB-626316;2;1;2019-06-18;22850001300658;FLG
04144000;101;10;2019-07-03;1725;1;X;1;0;20200312154618-HB-626317;2;1;2019-07-03;22850001300658;FLG
04156410;101;10;2019-06-20;1725;1;X;1;0;20200312154618-HB-626318;2;1;2019-06-20;22850001300658;FLG
04156430;101;10;2019-06-04;1725;1;X;1;0;20200312154618-HB-626319;2;1;2019-06-04;22850001300658;FLG
04156520;101;10;2019-06-24;1725;1;X;1;0;20200312154619-HB-626320;2;1;2019-06-24;22850001300658;FLG
04158000;101;10;2019-09-06;1725;1;X;1;0;20200312154619-HB-626321;2;1;2019-09-06;22850001300658;FLG
04158050;101;10;2019-06-20;1725;1;X;1;0;20200312154619-HB-626322;2;1;2019-06-20;22850001300658;FLG
04751001;004;10;2019-06-04;1725;1;X;1;0;20200312154619-HB-626323;2;1;2019-06-04;22850001300658;FLG
04771001;004;10;2019-06-27;1725;1;X;1;0;20200312154619-HB-626324;2;1;2019-06-27;22850001300658;FLG
04134895;002;10;2019-07-09;1725;1;X;1;0;20200421175514-HB-631249;2;1;2019-07-09;22490001900015;FLG
04131470;001;10;2019-07-01;1725;1;X;1;0;20200421175514-HB-631251;2;1;2019-07-01;22490001900015;FLG
04133550;101;10;2019-07-02;1725;1;X;1;0;20200421175514-HB-631252;2;1;2019-07-02;22490001900015;FLG
04651000;005;10;2019-07-02;1725;1;X;1;0;20200421175514-HB-631253;2;1;2019-07-02;22490001900015;FLG
04109605;101;10;2019-07-03;1725;1;X;1;0;20200421175514-HB-631254;2;1;2019-07-03;22490001900015;FLG
04615005;004;10;2019-07-03;1725;1;X;1;0;20200421175515-HB-631255;2;1;2019-07-03;22490001900015;FLG
04134690;002;10;2019-07-04;1725;1;X;1;0;20200421175515-HB-631257;2;1;2019-07-04;22490001900015;FLG
04142300;101;10;2019-07-09;1725;1;X;1;0;20200421175515-HB-631258;2;1;2019-07-09;22490001900015;FLG
04134890;101;10;2019-07-09;1725;1;X;1;0;20200421175515-HB-631259;2;1;2019-07-09;22490001900015;FLG
04133075;101;10;2019-07-17;1725;1;X;1;0;20200421175515-HB-631261;2;1;2019-07-17;22490001900015;FLG
04131445;101;10;2019-07-01;1725;1;X;1;0;20200421175516-HB-631262;2;1;2019-07-01;22490001900015;FLG
04131455;101;10;2019-07-01;1725;1;X;1;0;20200421175516-HB-631263;2;1;2019-07-01;22490001900015;FLG
04134960;101;10;2019-07-16;1725;1;X;1;0;20200421175516-HB-631264;2;1;2019-07-16;22490001900015;FLG
04134900;002;10;2019-07-23;1725;1;X;1;0;20200421175516-HB-631265;2;1;2019-07-23;22490001900015;FLG
04131500;101;10;2019-07-18;1725;1;X;1;0;20200421175516-HB-631266;2;1;2019-07-18;22490001900015;FLG
04146350;001;10;2019-07-18;1725;1;X;1;0;20200421175516-HB-631267;2;1;2019-07-18;22490001900015;FLG
04148820;101;10;2019-06-04;1725;1;X;1;0;20200430100830-HB-632772;2;1;2019-06-04;18450301900012;FLG
04119220;101;10;2018-07-26;1725;1;X;1;0;20190418094303-HB-562027;2;1;2018-07-26;13000610900057;FLG
04119750;101;10;2018-07-26;1725;1;X;1;0;20190418094304-HB-562028;2;1;2018-07-26;13000610900057;FLG
04131200;101;10;2018-07-12;1725;1;X;1;0;20190418094304-HB-562029;2;1;2018-07-12;13000610900057;FLG
04131550;101;10;2018-07-12;1725;1;X;1;0;20190418094304-HB-562030;2;1;2018-07-12;13000610900057;FLG
04143000;101;10;2018-07-18;1725;1;X;1;0;20190418094305-HB-562031;2;1;2018-07-18;13000610900057;FLG
04143150;101;10;2018-07-18;1725;1;X;1;0;20190418094305-HB-562032;2;1;2018-07-18;13000610900057;FLG
04150500;101;10;2018-07-17;1725;1;X;1;0;20190418094305-HB-562033;2;1;2018-07-17;13000610900057;FLG
04151500;101;10;2018-07-17;1725;1;X;1;0;20190418094305-HB-562034;2;1;2018-07-17;13000610900057;FLG
04153100;101;10;2018-07-02;1725;1;X;1;0;20190418094305-HB-562035;2;1;2018-07-02;13000610900057;FLG
04153300;101;10;2018-07-16;1725;1;X;1;0;20190418094305-HB-562036;2;1;2018-07-16;13000610900057;FLG
04200595;101;10;2018-07-04;1725;1;X;1;0;20190418094306-HB-562038;2;1;2018-07-04;13000610900057;FLG
04214495;101;10;2018-07-19;1725;1;X;1;0;20190418094306-HB-562039;2;1;2018-07-19;13000610900057;FLG
04103200;101;10;2018-08-23;1725;1;X;1;0;20190418094306-HB-562040;2;1;2018-08-23;13000610900057;FLG
04134700;101;10;2018-08-23;1725;1;X;1;0;20190418094306-HB-562041;2;1;2018-08-23;13000610900057;FLG
04103200;101;10;2019-08-01;1725;1;X;1;0;20200331143659-HB-629160;2;1;2019-08-01;13000610900057;FLG
04108285;101;10;2019-07-02;1725;1;X;1;0;20200331143659-HB-629161;2;1;2019-07-02;13000610900057;FLG
04112200;101;10;2019-07-23;1725;1;X;1;0;20200331143659-HB-629162;2;1;2019-07-23;13000610900057;FLG
04113250;101;10;2019-07-23;1725;1;X;1;0;20200331143659-HB-629163;2;1;2019-07-23;13000610900057;FLG
04113800;101;10;2019-07-23;1725;1;X;1;0;20200331143700-HB-629164;2;1;2019-07-23;13000610900057;FLG
04115200;101;10;2019-07-23;1725;1;X;1;0;20200331143700-HB-629165;2;1;2019-07-23;13000610900057;FLG
04115500;101;10;2019-07-23;1725;1;X;1;0;20200331143700-HB-629166;2;1;2019-07-23;13000610900057;FLG
04123750;101;10;2019-07-30;1725;1;X;1;0;20200331143700-HB-629167;2;1;2019-07-30;13000610900057;FLG
04123800;101;10;2019-07-30;1725;1;X;1;0;20200331143700-HB-629168;2;1;2019-07-30;13000610900057;FLG
04124850;101;10;2019-07-30;1725;1;X;1;0;20200331143700-HB-629169;2;1;2019-07-30;13000610900057;FLG
04128490;101;10;2019-07-30;1725;1;X;1;0;20200331143701-HB-629170;2;1;2019-07-30;13000610900057;FLG
04133000;101;10;2019-08-01;1725;1;X;1;0;20200331143701-HB-629171;2;1;2019-08-01;13000610900057;FLG
04133200;101;10;2019-05-24;1725;1;X;1;0;20200331143701-HB-629172;2;1;2019-05-24;13000610900057;FLG
04134700;101;10;2019-08-01;1725;1;X;1;0;20200331143701-HB-629173;2;1;2019-08-01;13000610900057;FLG
04137993;101;10;2019-07-11;1725;1;X;1;0;20200331143701-HB-629174;2;1;2019-07-11;13000610900057;FLG
04143150;101;10;2019-06-20;1725;1;X;1;0;20200331143701-HB-629176;2;1;2019-06-20;13000610900057;FLG
04143500;101;10;2019-06-20;1725;1;X;1;0;20200331143702-HB-629177;2;1;2019-06-20;13000610900057;FLG
04150830;101;10;2019-07-25;1725;1;X;1;0;20200331143702-HB-629178;2;1;2019-07-25;13000610900057;FLG
04153600;101;10;2019-07-25;1725;1;X;1;0;20200331143702-HB-629179;2;1;2019-07-25;13000610900057;FLG
04153700;101;10;2019-07-25;1725;1;X;1;0;20200331143702-HB-629180;2;1;2019-07-25;13000610900057;FLG
04154050;101;10;2019-07-25;1725;1;X;1;0;20200331143702-HB-629181;2;1;2019-07-25;13000610900057;FLG
04154200;101;10;2019-07-25;1725;1;X;1;0;20200331143702-HB-629182;2;1;2019-07-25;13000610900057;FLG
04214000;101;10;2019-06-25;1725;1;X;1;0;20200331143702-HB-629184;2;1;2019-06-25;13000610900057;FLG
04612000;003;10;2019-09-03;1725;1;X;1;0;20200331143703-HB-629185;2;1;2019-09-03;13000610900057;FLG
04701009;006;10;2019-04-30;1725;1;X;1;0;20200604112548-HB-637662;2;1;2019-04-30;37846524900043;FLG
04150690;005;10;2019-04-29;1725;1;X;1;0;20200604112548-HB-637663;2;1;2019-04-29;37846524900043;FLG
04702003;006;10;2019-04-29;1725;1;X;1;0;20200604112548-HB-637664;2;1;2019-04-29;37846524900043;FLG
04701011;006;10;2019-04-30;1725;1;X;1;0;20200604112548-HB-637665;2;1;2019-04-30;37846524900043;FLG
04148820;101;10;2018-08-08;1725;1;X;1;0;20190412155626-HB-558594;2;1;2018-08-08;18450301900012;FLG
04682007;005;10;2019-06-04;1725;1;X;1;0;20200430100834-HB-632802;2;1;2019-06-04;18450301900012;FLG
04155500;101;10;2018-10-04;1725;1;X;1;0;20190412155315-HB-558559;2;1;2018-10-04;18450301900012;FLG
04155500;101;10;2019-06-26;1725;1;X;1;0;20200430101117-HB-633006;2;1;2019-06-26;18450301900012;FLG
04684000;002;10;2018-08-09;1725;1;X;1;0;20190412155629-HB-558615;2;1;2018-08-09;18450301900012;FLG
04735001;002;10;2018-07-20;1725;1;X;1;0;20190412155631-HB-558626;2;1;2018-07-20;18450301900012;FLG
04149400;101;10;2019-05-16;1725;1;X;1;0;20200430100830-HB-632773;2;1;2019-05-16;18450301900012;FLG
04735001;002;10;2019-06-13;1725;1;X;1;0;20200430100834-HB-632809;2;1;2019-06-13;18450301900012;FLG
04152000;002;10;2018-10-04;1725;1;X;1;0;20190412155309-HB-558516;2;1;2018-10-04;18450301900012;FLG
04151500;101;10;2019-05-14;1725;1;X;1;0;20200430101117-HB-633001;2;1;2019-05-14;18450301900012;FLG
04152000;002;10;2019-07-18;1725;1;X;1;0;20200430101117-HB-633002;2;1;2019-07-18;18450301900012;FLG
04148590;101;10;2018-08-08;1725;1;X;1;0;20190412155309-HB-558518;2;1;2018-08-08;18450301900012;FLG
04148590;101;10;2019-06-04;1725;1;X;1;0;20200430101116-HB-632999;2;1;2019-06-04;18450301900012;FLG
04153100;101;10;2019-06-27;1725;1;X;1;0;20200430101117-HB-633004;2;1;2019-06-27;18450301900012;FLG
04721000;004;10;2018-07-17;1725;1;X;1;0;20190412155629-HB-558613;2;1;2018-07-17;18450301900012;FLG
04136400;101;10;2019-08-29;1725;1;X;1;0;20200430100829-HB-632765;2;1;2019-08-29;18450301900012;FLG
04721000;004;10;2019-06-28;1725;1;X;1;0;20200430100834-HB-632804;2;1;2019-06-28;18450301900012;FLG
04215800;101;10;2018-09-13;1725;1;X;1;0;20190412155314-HB-558555;2;1;2018-09-13;18450301900012;FLG
04150500;101;10;2019-05-15;1725;1;X;1;0;20200430101116-HB-633000;2;1;2019-05-15;18450301900012;FLG
04214495;101;10;2019-05-16;1725;1;X;1;0;20200430101117-HB-633009;2;1;2019-05-16;18450301900012;FLG
04215800;101;10;2019-07-16;1725;1;X;1;0;20200430101118-HB-633011;2;1;2019-07-16;18450301900012;FLG
04136600;101;10;2018-05-25;1725;1;X;1;0;20190412155307-HB-558503;2;1;2018-05-25;18450301900012;FLG
04136600;101;10;2019-05-13;1725;1;X;1;0;20200430101115-HB-632991;2;1;2019-05-13;18450301900012;FLG
04145000;101;10;2018-10-05;1725;1;X;1;0;20190412155310-HB-558525;2;1;2018-10-05;18450301900012;FLG
04145000;101;10;2019-07-18;1725;1;X;1;0;20200430101116-HB-632994;2;1;2019-07-18;18450301900012;FLG
04135400;002;10;2018-07-03;1725;1;X;1;0;20190412155626-HB-558591;2;1;2018-07-03;18450301900012;FLG
04712000;003;10;2018-07-19;1725;1;X;1;0;20190412155629-HB-558614;2;1;2018-07-19;18450301900012;FLG
04135900;101;10;2019-05-16;1725;1;X;1;0;20200430100829-HB-632763;2;1;2019-05-16;18450301900012;FLG
04712000;003;10;2019-05-16;1725;1;X;1;0;20200430100834-HB-632803;2;1;2019-05-16;18450301900012;FLG
04146500;101;10;2018-09-18;1725;1;X;1;0;20190412155310-HB-558522;2;1;2018-09-18;18450301900012;FLG
04215485;101;10;2018-09-12;1725;1;X;1;0;20190412155314-HB-558556;2;1;2018-09-12;18450301900012;FLG
04146500;101;10;2019-08-02;1725;1;X;1;0;20200430101116-HB-632996;2;1;2019-08-02;18450301900012;FLG
04215485;101;10;2019-08-02;1725;1;X;1;0;20200430101117-HB-633010;2;1;2019-08-02;18450301900012;FLG
04654000;004;10;2018-07-03;1725;1;X;1;0;20190412155630-HB-558620;2;1;2018-07-03;18450301900012;FLG
04148525;002;10;2019-05-15;1725;1;X;1;0;20200430100830-HB-632771;2;1;2019-05-15;18450301900012;FLG
04654000;004;10;2019-05-15;1725;1;X;1;0;20200430100833-HB-632798;2;1;2019-05-15;18450301900012;FLG
04135000;101;10;2018-10-04;1725;1;X;1;0;20190412155307-HB-558505;2;1;2018-10-04;18450301900012;FLG
04146840;101;10;2018-08-09;1725;1;X;1;0;20190412155309-HB-558519;2;1;2018-08-09;18450301900012;FLG
04135000;101;10;2019-07-17;1725;1;X;1;0;20200430101115-HB-632990;2;1;2019-07-17;18450301900012;FLG
04146600;101;10;2019-07-16;1725;1;X;1;0;20200430101116-HB-632997;2;1;2019-07-16;18450301900012;FLG
04146840;101;10;2019-06-05;1725;1;X;1;0;20200430101116-HB-632998;2;1;2019-06-05;18450301900012;FLG
04215680;101;10;2018-08-09;1725;1;X;1;0;20190412155632-HB-558636;2;1;2018-08-09;18450301900012;FLG
04134960;101;10;2018-08-08;1725;1;X;1;0;20190314161107-HB-508746;2;1;2018-08-08;22490001900015;FLG
04136300;101;10;2018-07-31;1725;1;X;1;0;20190412155625-HB-558588;2;1;2018-07-31;18450301900012;FLG
04136300;101;10;2019-05-16;1725;1;X;1;0;20200430100829-HB-632764;2;1;2019-05-16;18450301900012;FLG
04133000;101;10;2018-10-03;1725;1;X;1;0;20190412155308-HB-558509;2;1;2018-10-03;18450301900012;FLG
04653000;002;10;2019-05-16;1725;1;X;1;0;20200430100833-HB-632797;2;1;2019-05-16;18450301900012;FLG
04132500;101;10;2018-09-05;1725;1;X;1;0;20190412155308-HB-558511;2;1;2018-09-05;18450301900012;FLG
04154200;101;10;2018-07-20;1725;1;X;1;0;20190412155314-HB-558554;2;1;2018-07-20;18450301900012;FLG
04132500;101;10;2019-08-28;1725;1;X;1;0;20200430101115-HB-632986;2;1;2019-08-28;18450301900012;FLG
04104500;101;10;2018-10-03;1725;1;X;1;0;20190412155312-HB-558537;2;1;2018-10-03;18450301900012;FLG
04123000;101;10;2018-09-04;1725;1;X;1;0;20190412155313-HB-558550;2;1;2018-09-04;18450301900012;FLG
04104500;101;10;2019-10-08;1725;1;X;1;0;20200430101113-HB-632966;2;1;2019-10-08;18450301900012;FLG
04123000;101;10;2019-05-14;1725;1;X;1;0;20200430101114-HB-632976;2;1;2019-05-14;18450301900012;FLG
04615003;002;10;2018-08-10;1725;1;X;1;0;20190314161100-HB-508730;2;1;2018-08-10;22490001900015;FLG
04132900;101;10;2018-08-10;1725;1;X;1;0;20190314161100-HB-508728;2;1;2018-08-10;22490001900015;FLG
04592000;004;10;2018-08-02;1725;1;X;1;0;20190412155632-HB-558631;2;1;2018-08-02;18450301900012;FLG
04122990;101;10;2019-05-14;1725;1;X;1;0;20200430100828-HB-632757;2;1;2019-05-14;18450301900012;FLG
04133075;101;10;2018-08-08;1725;1;X;1;0;20190314161101-HB-508732;2;1;2018-08-08;22490001900015;FLG
04636002;002;10;2018-08-09;1725;1;X;1;0;20190314161108-HB-508749;2;1;2018-08-09;22490001900015;FLG
04146655;002;10;2018-05-25;1725;1;X;1;0;20190412155626-HB-558596;2;1;2018-05-25;18450301900012;FLG
04146655;002;10;2019-05-15;1725;1;X;1;0;20200430100830-HB-632770;2;1;2019-05-15;18450301900012;FLG
04134200;101;10;2018-07-31;1725;1;X;1;0;20190412155626-HB-558590;2;1;2018-07-31;18450301900012;FLG
04132000;101;10;2018-09-05;1725;1;X;1;0;20190412155308-HB-558512;2;1;2018-09-05;18450301900012;FLG
04152500;101;10;2018-09-14;1725;1;X;1;0;20190412155309-HB-558515;2;1;2018-09-14;18450301900012;FLG
04104200;101;10;2018-08-02;1725;1;X;1;0;20190412155314-HB-558553;2;1;2018-08-02;18450301900012;FLG
04104200;101;10;2019-07-31;1725;1;X;1;0;20200430101112-HB-632965;2;1;2019-07-31;18450301900012;FLG
04132000;101;10;2019-08-29;1725;1;X;1;0;20200430101115-HB-632985;2;1;2019-08-29;18450301900012;FLG
04152500;101;10;2019-05-15;1725;1;X;1;0;20200430101117-HB-633003;2;1;2019-05-15;18450301900012;FLG
04122100;101;10;2018-08-09;1725;1;X;1;0;20190314161057-HB-508722;2;1;2018-08-09;22490001900015;FLG
04134000;101;10;2018-08-03;1725;1;X;1;0;20190412155307-HB-558506;2;1;2018-08-03;18450301900012;FLG
04134000;101;10;2019-06-06;1725;1;X;1;0;20200430101115-HB-632989;2;1;2019-06-06;18450301900012;FLG
04133960;101;10;2018-07-02;1725;1;X;1;0;20190412155308-HB-558507;2;1;2018-07-02;18450301900012;FLG
04103950;101;10;2018-08-02;1725;1;X;1;0;20190412155312-HB-558538;2;1;2018-08-02;18450301900012;FLG
04133960;101;10;2019-06-06;1725;1;X;1;0;20200430101115-HB-632988;2;1;2019-06-06;18450301900012;FLG
04590006;006;10;2019-06-17;1725;1;X;1;0;20201016124514-HB-669169;1;4;2019-06-17;34487538000042;FLG
04587001;004;10;2018-10-05;1725;1;X;1;0;20190412155633-HB-558639;2;1;2018-10-05;18450301900012;FLG
04132800;101;10;2018-08-01;1725;1;X;1;0;20190412155308-HB-558510;2;1;2018-08-01;18450301900012;FLG
04110000;101;10;2018-09-04;1725;1;X;1;0;20190412155311-HB-558534;2;1;2018-09-04;18450301900012;FLG
04110000;101;10;2019-08-27;1725;1;X;1;0;20200430101113-HB-632969;2;1;2019-08-27;18450301900012;FLG
04132800;101;10;2019-07-31;1725;1;X;1;0;20200430101115-HB-632987;2;1;2019-07-31;18450301900012;FLG
04131600;004;10;2019-05-30;1725;1;X;1;0;20200430100829-HB-632760;2;1;2019-05-30;18450301900012;FLG
04615009;003;10;2019-05-14;1725;1;X;1;0;20200430100832-HB-632789;2;1;2019-05-14;18450301900012;FLG
04615007;004;10;2018-08-10;1725;1;X;1;0;20190314161055-HB-508719;2;1;2018-08-10;22490001900015;FLG
04615001;002;10;2019-06-14;1725;1;X;1;0;20200430100832-HB-632787;2;1;2019-06-14;18450301900012;FLG
04143000;101;10;2019-06-05;1725;1;X;1;0;20200430101116-HB-632993;2;1;2019-06-05;18450301900012;FLG
04102550;002;10;2018-10-04;1725;1;X;1;0;20190412155627-HB-558602;2;1;2018-10-04;18450301900012;FLG
04652002;004;10;2018-07-02;1725;1;X;1;0;20190412155630-HB-558621;2;1;2018-07-02;18450301900012;FLG
04102400;101;10;2018-07-12;1725;1;X;1;0;20190412155307-HB-558500;2;1;2018-07-12;18450301900012;FLG
04102400;101;10;2019-08-21;1725;1;X;1;0;20200430101112-HB-632962;2;1;2019-08-21;18450301900012;FLG
04144500;101;10;2018-05-24;1725;1;X;1;0;20190412155627-HB-558597;2;1;2018-05-24;18450301900012;FLG
04673000;002;10;2018-05-24;1725;1;X;1;0;20190412155629-HB-558616;2;1;2018-05-24;18450301900012;FLG
04134920;005;10;2019-06-06;1725;1;X;1;0;20200430100829-HB-632761;2;1;2019-06-06;18450301900012;FLG
04144500;101;10;2019-05-14;1725;1;X;1;0;20200430100830-HB-632769;2;1;2019-05-14;18450301900012;FLG
04673000;002;10;2019-05-14;1725;1;X;1;0;20200430100833-HB-632801;2;1;2019-05-14;18450301900012;FLG
04102500;101;10;2018-10-02;1725;1;X;1;0;20190412155312-HB-558539;2;1;2018-10-02;18450301900012;FLG
04128490;101;10;2018-09-06;1725;1;X;1;0;20190412155313-HB-558543;2;1;2018-09-06;18450301900012;FLG
04102500;101;10;2019-08-21;1725;1;X;1;0;20200430101112-HB-632963;2;1;2019-08-21;18450301900012;FLG
04131550;101;10;2019-05-30;1725;1;X;1;0;20200430101114-HB-632984;2;1;2019-05-30;18450301900012;FLG
04131500;101;10;2018-08-09;1725;1;X;1;0;20190314161106-HB-508744;2;1;2018-08-09;22490001900015;FLG
04102990;101;10;2018-08-10;1725;1;X;1;0;20190314161058-HB-508724;2;1;2018-08-10;22490001900015;FLG
04652004;003;10;2018-08-03;1725;1;X;1;0;20190412155422-HB-558565;2;1;2018-08-03;18450301900012;FLG
04652004;003;10;2019-05-15;1725;1;X;1;0;20200430100623-HB-632633;2;1;2019-05-15;18450301900012;FLG
04615012;004;10;2018-08-10;1725;1;X;1;0;20190314161105-HB-508741;2;1;2018-08-10;22490001900015;FLG
04150830;101;10;2018-07-17;1725;1;X;1;0;20190412155309-HB-558517;2;1;2018-07-17;18450301900012;FLG
04102350;001;10;2018-08-10;1725;1;X;1;0;20190314161100-HB-508729;2;1;2018-08-10;22490001900015;FLG
04119160;001;10;2018-07-24;1725;1;X;1;0;20190412155628-HB-558607;2;1;2018-07-24;18450301900012;FLG
04119160;001;10;2019-09-04;1725;1;X;1;0;20200430100828-HB-632756;2;1;2019-09-04;18450301900012;FLG
04637010;004;10;2019-05-30;1725;1;X;1;0;20200430100833-HB-632795;2;1;2019-05-30;18450301900012;FLG
04109605;101;10;2018-08-09;1725;1;X;1;0;20190314161101-HB-508733;2;1;2018-08-09;22490001900015;FLG
04733000;004;10;2018-07-20;1725;1;X;1;0;20190412155629-HB-558611;2;1;2018-07-20;18450301900012;FLG
04733000;004;10;2019-05-15;1725;1;X;1;0;20200430100834-HB-632805;2;1;2019-05-15;18450301900012;FLG
04131455;101;10;2018-08-09;1725;1;X;1;0;20190314161054-HB-508717;2;1;2018-08-09;22490001900015;FLG
04131445;101;10;2018-08-09;1725;1;X;1;0;20190314161057-HB-508723;2;1;2018-08-09;22490001900015;FLG
04153300;101;10;2019-06-27;1725;1;X;1;0;20200430101117-HB-633005;2;1;2019-06-27;18450301900012;FLG
04143900;101;10;2018-07-08;1725;1;X;1;0;20190412155625-HB-558589;2;1;2018-07-08;18450301900012;FLG
04143900;101;10;2019-05-14;1725;1;X;1;0;20200430100829-HB-632768;2;1;2019-05-14;18450301900012;FLG
04131200;101;10;2019-06-07;1725;1;X;1;0;20200430101114-HB-632983;2;1;2019-06-07;18450301900012;FLG
04119125;002;10;2018-09-18;1725;1;X;1;0;20190412155628-HB-558608;2;1;2018-09-18;18450301900012;FLG
04146350;001;10;2018-08-09;1725;1;X;1;0;20190314161058-HB-508725;2;1;2018-08-09;22490001900015;FLG
04592001;007;10;2019-06-17;1725;1;X;1;0;20201016124514-HB-669167;1;4;2019-06-17;34487538000042;FLG
04605007;004;10;2019-06-13;1725;1;X;1;0;20200430100831-HB-632783;2;1;2019-06-13;18450301900012;FLG
04134900;002;10;2018-08-08;1725;1;X;1;0;20190314161101-HB-508731;2;1;2018-08-08;22490001900015;FLG
04133550;101;10;2018-08-10;1725;1;X;1;0;20190314161103-HB-508736;2;1;2018-08-10;22490001900015;FLG
04103935;001;10;2018-08-02;1725;1;X;1;0;20190412155627-HB-558601;2;1;2018-08-02;18450301900012;FLG
04376006;003;10;2018-09-19;1725;1;X;1;0;20190412155632-HB-558635;2;1;2018-09-19;18450301900012;FLG
04605000;001;10;2019-09-04;1725;1;X;1;0;20200430100831-HB-632781;2;1;2019-09-04;18450301900012;FLG
04615011;004;10;2019-07-30;1725;1;X;1;0;20200430100832-HB-632790;2;1;2019-07-30;18450301900012;FLG
04376006;003;10;2019-06-07;1725;1;X;1;0;20200430100835-HB-632811;2;1;2019-06-07;18450301900012;FLG
04119000;101;10;2018-09-04;1725;1;X;1;0;20190412155314-HB-558551;2;1;2018-09-04;18450301900012;FLG
04119000;101;10;2019-08-08;1725;1;X;1;0;20200430101113-HB-632973;2;1;2019-08-08;18450301900012;FLG
04734003;004;10;2018-05-25;1725;1;X;1;0;20190412155633-HB-558638;2;1;2018-05-25;18450301900012;FLG
04734003;004;10;2019-05-16;1725;1;X;1;0;20200430100834-HB-632808;2;1;2019-05-16;18450301900012;FLG
04154050;101;10;2018-07-19;1725;1;X;1;0;20190412155307-HB-558504;2;1;2018-07-19;18450301900012;FLG
04128050;101;10;2018-07-27;1725;1;X;1;0;20190412155313-HB-558544;2;1;2018-07-27;18450301900012;FLG
04128050;101;10;2019-09-06;1725;1;X;1;0;20200430101114-HB-632981;2;1;2019-09-06;18450301900012;FLG
04133800;003;10;2018-08-10;1725;1;X;1;0;20190314161105-HB-508742;2;1;2018-08-10;22490001900015;FLG
04131470;001;10;2018-08-09;1725;1;X;1;0;20190314161104-HB-508738;2;1;2018-08-09;22490001900015;FLG
04131300;101;10;2018-09-20;1725;1;X;1;0;20190412155627-HB-558599;2;1;2018-09-20;18450301900012;FLG
04590003;006;10;2019-06-17;1725;1;X;1;0;20201016124514-HB-669168;1;4;2019-06-17;34487538000042;FLG
04751001;004;10;2018-07-03;1725;1;X;1;0;20190412155630-HB-558617;2;1;2018-07-03;18450301900012;FLG
04751001;004;10;2019-05-16;1725;1;X;1;0;20200430100835-HB-632810;2;1;2019-05-16;18450301900012;FLG
04153700;101;10;2018-09-14;1725;1;X;1;0;20190412155308-HB-558513;2;1;2018-09-14;18450301900012;FLG
04108500;101;10;2018-08-20;1725;1;X;1;0;20190412155312-HB-558536;2;1;2018-08-20;18450301900012;FLG
04108500;101;10;2019-08-07;1725;1;X;1;0;20200430101113-HB-632967;2;1;2019-08-07;18450301900012;FLG
04146825;101;10;2018-08-09;1725;1;X;1;0;20190412155626-HB-558592;2;1;2018-08-09;18450301900012;FLG
04119105;001;10;2019-06-12;1725;1;X;1;0;20200430100828-HB-632755;2;1;2019-06-12;18450301900012;FLG
04614002;002;10;2019-09-03;1725;1;X;1;0;20200430100831-HB-632785;2;1;2019-09-03;18450301900012;FLG
04134690;002;10;2018-08-08;1725;1;X;1;0;20190314161059-HB-508726;2;1;2018-08-08;22490001900015;FLG
04115200;101;10;2018-07-05;1725;1;X;1;0;20190412155311-HB-558529;2;1;2018-07-05;18450301900012;FLG
04142300;101;10;2018-08-08;1725;1;X;1;0;20190314161104-HB-508739;2;1;2018-08-08;22490001900015;FLG
04133650;101;10;2018-08-10;1725;1;X;1;0;20190314161106-HB-508743;2;1;2018-08-10;22490001900015;FLG
04146418;101;10;2018-09-19;1725;1;X;1;0;20190412155310-HB-558523;2;1;2018-09-19;18450301900012;FLG
04108736;101;10;2018-10-03;1725;1;X;1;0;20190412155310-HB-558527;2;1;2018-10-03;18450301900012;FLG
04108736;101;10;2019-06-13;1725;1;X;1;0;20200430101113-HB-632968;2;1;2019-06-13;18450301900012;FLG
04146418;101;10;2019-08-01;1725;1;X;1;0;20200430101116-HB-632995;2;1;2019-08-01;18450301900012;FLG
04591007;005;10;2019-06-17;1725;1;X;1;0;20201016124513-HB-669166;1;4;2019-06-17;34487538000042;FLG
04115500;101;10;2018-07-24;1725;1;X;1;0;20190412155311-HB-558528;2;1;2018-07-24;18450301900012;FLG
04104100;101;10;2018-08-10;1725;1;X;1;0;20190314161055-HB-508718;2;1;2018-08-10;22490001900015;FLG
04636007;003;10;2018-07-26;1725;1;X;1;0;20190412155501-HB-558576;2;1;2018-07-26;18450301900012;FLG
04671004;004;10;2018-08-07;1725;1;X;1;0;20190412155631-HB-558625;2;1;2018-08-07;18450301900012;FLG
04671004;004;10;2019-06-12;1725;1;X;1;0;20200430100833-HB-632800;2;1;2019-06-12;18450301900012;FLG
04633000;002;10;2019-05-30;1725;1;X;1;0;20200430100623-HB-632629;2;1;2019-05-30;18450301900012;FLG
04214000;101;10;2018-09-19;1725;1;X;1;0;20190412155314-HB-558557;2;1;2018-09-19;18450301900012;FLG
04614000;003;10;2018-08-28;1725;1;X;1;0;20190415125856-HB-560141;2;1;2018-08-28;22370001400010;FLG
04614003;004;10;2019-06-13;1725;1;X;1;0;20200430100832-HB-632786;2;1;2019-06-13;18450301900012;FLG
04127000;101;10;2019-09-24;1725;1;X;1;0;20200430101114-HB-632980;2;1;2019-09-24;18450301900012;FLG
04734000;004;10;2018-07-19;1725;1;X;1;0;20190412155631-HB-558627;2;1;2018-07-19;18450301900012;FLG
04734000;004;10;2019-05-16;1725;1;X;1;0;20200430100834-HB-632806;2;1;2019-05-16;18450301900012;FLG
04591000;002;10;2018-08-10;1725;1;X;1;0;20190314161106-HB-508745;2;1;2018-08-10;22490001900015;FLG
04604006;004;10;2019-08-27;1725;1;X;1;0;20200430100830-HB-632778;2;1;2019-08-27;18450301900012;FLG
04660001;004;10;2019-06-06;1725;1;X;1;0;20200430100833-HB-632799;2;1;2019-06-06;18450301900012;FLG
04634014;003;10;2019-07-16;1725;1;X;1;0;20200303170003-HB-624574;2;1;2019-07-16;25530072500017;FLG
04602013;003;10;2018-06-29;1725;1;X;1;0;20191209100005-HB-606228;2;1;2018-06-29;25720009700026;FLG
04140100;101;10;2018-08-07;1725;1;X;1;0;20190412155625-HB-558585;2;1;2018-08-07;18450301900012;FLG
04140100;101;10;2019-06-04;1725;1;X;1;0;20200430100829-HB-632767;2;1;2019-06-04;18450301900012;FLG
04114500;101;10;2018-08-23;1725;1;X;1;0;20190412155311-HB-558530;2;1;2018-08-23;18450301900012;FLG
04114500;101;10;2019-08-08;1725;1;X;1;0;20200430101113-HB-632971;2;1;2019-08-08;18450301900012;FLG
04660001;004;10;2018-08-08;1725;1;X;1;0;20190314161059-HB-508727;2;1;2018-08-08;22490001900015;FLG
04113800;101;10;2018-08-20;1725;1;X;1;0;20190412155311-HB-558532;2;1;2018-08-20;18450301900012;FLG
04119255;101;10;2019-09-26;1725;1;X;1;0;20200430100622-HB-632620;2;1;2019-09-26;18450301900012;FLG
04133600;101;10;2018-08-10;1725;1;X;1;0;20190314161108-HB-508748;2;1;2018-08-10;22490001900015;FLG
04671001;002;10;2018-08-08;1725;1;X;1;0;20190314161057-HB-508721;2;1;2018-08-08;22490001900015;FLG
04606001;004;10;2018-07-25;1725;1;X;1;0;20190412155423-HB-558572;2;1;2018-07-25;18450301900012;FLG
04113720;101;10;2018-07-12;1725;1;X;1;0;20190412155627-HB-558600;2;1;2018-07-12;18450301900012;FLG
04602000;002;10;2018-07-25;1725;1;X;1;0;20190412155631-HB-558630;2;1;2018-07-25;18450301900012;FLG
04113720;101;10;2019-05-29;1725;1;X;1;0;20200430100828-HB-632753;2;1;2019-05-29;18450301900012;FLG
04130500;101;10;2018-09-20;1725;1;X;1;0;20190412155310-HB-558526;2;1;2018-09-20;18450301900012;FLG
04130500;101;10;2019-09-26;1725;1;X;1;0;20200430101114-HB-632982;2;1;2019-09-26;18450301900012;FLG
04614004;004;10;2018-10-03;1725;1;X;1;0;20190412155633-HB-558644;2;1;2018-10-03;18450301900012;FLG
04734002;005;10;2018-07-18;1725;1;X;1;0;20190412155629-HB-558610;2;1;2018-07-18;18450301900012;FLG
04734002;005;10;2019-05-15;1725;1;X;1;0;20200430100834-HB-632807;2;1;2019-05-15;18450301900012;FLG
04143500;101;10;2018-08-07;1725;1;X;1;0;20190412155309-HB-558520;2;1;2018-08-07;18450301900012;FLG
04153600;101;10;2018-09-13;1725;1;X;1;0;20190412155309-HB-558514;2;1;2018-09-13;18450301900012;FLG
04113700;101;10;2019-05-29;1725;1;X;1;0;20200430100828-HB-632752;2;1;2019-05-29;18450301900012;FLG
04131250;101;10;2019-07-03;1725;1;X;1;0;20200413164405-HB-630782;2;1;2019-07-03;22530001100015;FLG
04652005;002;10;2018-08-08;1725;1;X;1;0;20190314161104-HB-508740;2;1;2018-08-08;22490001900015;FLG
04613004;002;10;2018-10-04;1725;1;X;1;0;20190412155634-HB-558647;2;1;2018-10-04;18450301900012;FLG
04613004;002;10;2019-07-05;1725;1;X;1;0;20200430100831-HB-632784;2;1;2019-07-05;18450301900012;FLG
04134895;002;10;2018-08-08;1725;1;X;1;0;20190314161102-HB-508734;2;1;2018-08-08;22490001900015;FLG
04113250;101;10;2018-08-20;1725;1;X;1;0;20190412155311-HB-558533;2;1;2018-08-20;18450301900012;FLG
04632016;003;10;2019-05-29;1725;1;X;1;0;20200430100623-HB-632628;2;1;2019-05-29;18450301900012;FLG
04126295;101;10;2018-07-27;1725;1;X;1;0;20190412155627-HB-558603;2;1;2018-07-27;18450301900012;FLG
04126295;101;10;2019-10-09;1725;1;X;1;0;20200430100829-HB-632759;2;1;2019-10-09;18450301900012;FLG
04604001;002;10;2018-07-13;1725;1;X;1;0;20190412155502-HB-558579;2;1;2018-07-13;18450301900012;FLG
04632010;004;10;2018-07-23;1725;1;X;1;0;20190412155634-HB-558646;2;1;2018-07-23;18450301900012;FLG
04632010;004;10;2019-09-27;1725;1;X;1;0;20200430100832-HB-632792;2;1;2019-09-27;18450301900012;FLG
04114100;101;10;2018-07-05;1725;1;X;1;0;20190412155311-HB-558531;2;1;2018-07-05;18450301900012;FLG
04114100;101;10;2019-05-30;1725;1;X;1;0;20200430101113-HB-632970;2;1;2019-05-30;18450301900012;FLG
04117450;101;10;2018-08-03;1725;1;X;1;0;20190412155422-HB-558561;2;1;2018-08-03;18450301900012;FLG
04634005;004;10;2018-07-10;1725;1;X;1;0;20190412155422-HB-558566;2;1;2018-07-10;18450301900012;FLG
04634005;004;10;2019-05-29;1725;1;X;1;0;20200430100623-HB-632632;2;1;2019-05-29;18450301900012;FLG
04119220;101;10;2019-09-05;1725;1;X;1;0;20200430101113-HB-632974;2;1;2019-09-05;18450301900012;FLG
04604008;004;10;2018-08-02;1725;1;X;1;0;20190412155634-HB-558645;2;1;2018-08-02;18450301900012;FLG
04604008;004;10;2019-05-29;1725;1;X;1;0;20200430100831-HB-632780;2;1;2019-05-29;18450301900012;FLG
04613008;003;10;2018-10-03;1725;1;X;1;0;20190412155502-HB-558581;2;1;2018-10-03;18450301900012;FLG
04613005;002;10;2019-07-05;1725;1;X;1;0;20200430100623-HB-632625;2;1;2019-07-05;18450301900012;FLG
04134890;101;10;2018-08-08;1725;1;X;1;0;20190314161056-HB-508720;2;1;2018-08-08;22490001900015;FLG
04605003;003;10;2018-07-25;1725;1;X;1;0;20190412155502-HB-558583;2;1;2018-07-25;18450301900012;FLG
04605003;003;10;2019-09-05;1725;1;X;1;0;20200430101635-HB-633076;2;1;2019-09-05;18450301900012;FLG
04633009;003;10;2019-05-30;1725;1;X;1;0;20200430101635-HB-633078;2;1;2019-05-30;18450301900012;FLG
04671003;004;10;2018-05-23;1725;1;X;1;0;20190412155630-HB-558618;2;1;2018-05-23;18450301900012;FLG
04672001;002;10;2018-08-08;1725;1;X;1;0;20190314161107-HB-508747;2;1;2018-08-08;22490001900015;FLG
04601004;004;10;2019-05-28;1725;1;X;1;0;20200430100830-HB-632775;2;1;2019-05-28;18450301900012;FLG
04635011;002;10;2019-06-27;1725;1;X;1;0;20200303170003-HB-624573;2;1;2019-06-27;25530072500017;FLG
04612000;003;10;2018-10-03;1725;1;X;1;0;20190412155315-HB-558560;2;1;2018-10-03;18450301900012;FLG
04133200;101;10;2018-07-04;1725;1;X;1;0;20190412155308-HB-558508;2;1;2018-07-04;18450301900012;FLG
04124850;101;10;2018-09-03;1725;1;X;1;0;20190412155312-HB-558541;2;1;2018-09-03;18450301900012;FLG
04633005;004;10;2018-07-25;1725;1;X;1;0;20190412155628-HB-558609;2;1;2018-07-25;18450301900012;FLG
04633005;004;10;2019-09-26;1725;1;X;1;0;20200430100833-HB-632794;2;1;2019-09-26;18450301900012;FLG
04604007;006;10;2018-08-01;1725;1;X;1;0;20190412155633-HB-558640;2;1;2018-08-01;18450301900012;FLG
04604007;006;10;2019-08-28;1725;1;X;1;0;20200430100831-HB-632779;2;1;2019-08-28;18450301900012;FLG
04116800;101;10;2018-07-05;1725;1;X;1;0;20190412155501-HB-558575;2;1;2018-07-05;18450301900012;FLG
04116800;101;10;2019-08-28;1725;1;X;1;0;20200430101635-HB-633075;2;1;2019-08-28;18450301900012;FLG
04119750;101;10;2019-09-05;1725;1;X;1;0;20200430101113-HB-632975;2;1;2019-09-05;18450301900012;FLG
04124985;101;10;2018-07-11;1725;1;X;1;0;20190412155314-HB-558552;2;1;2018-07-11;18450301900012;FLG
04124985;101;10;2019-09-26;1725;1;X;1;0;20200430101114-HB-632978;2;1;2019-09-26;18450301900012;FLG
04604004;002;10;2018-07-05;1725;1;X;1;0;20190412155502-HB-558578;2;1;2018-07-05;18450301900012;FLG
04141295;101;10;2018-08-08;1725;1;X;1;0;20190314161103-HB-508737;2;1;2018-08-08;22490001900015;FLG
04605001;004;10;2018-07-13;1725;1;X;1;0;20190412155423-HB-558573;2;1;2018-07-13;18450301900012;FLG
04606015;002;10;2019-09-04;1725;1;X;1;0;20200413164405-HB-630783;2;1;2019-09-04;22530001100015;FLG
04630017;003;10;2020-07-07;1725;1;X;1;0;20201126121640-HB-673873;2;1;2020-07-07;25530098000018;FLG
04630018;010;10;2020-07-07;1725;1;X;1;0;20201126121640-HB-673874;2;1;2020-07-07;25530098000018;FLG
04134800;101;10;2018-08-08;1725;1;X;1;0;20190314161102-HB-508735;2;1;2018-08-08;22490001900015;FLG
04125350;002;10;2018-07-24;1725;1;X;1;0;20190412155628-HB-558604;2;1;2018-07-24;18450301900012;FLG
04604002;005;10;2018-08-02;1725;1;X;1;0;20190412155631-HB-558628;2;1;2018-08-02;18450301900012;FLG
04633003;004;10;2019-09-26;1725;1;X;1;0;20200430100623-HB-632631;2;1;2019-09-26;18450301900012;FLG
04123750;101;10;2018-08-09;1725;1;X;1;0;20190412155313-HB-558549;2;1;2018-08-09;18450301900012;FLG
04633007;004;10;2018-07-25;1725;1;X;1;0;20190412155631-HB-558624;2;1;2018-07-25;18450301900012;FLG
04612001;004;10;2019-05-29;1725;1;X;1;0;20200430100622-HB-632624;2;1;2019-05-29;18450301900012;FLG
04123800;101;10;2018-08-09;1725;1;X;1;0;20190412155313-HB-558548;2;1;2018-08-09;18450301900012;FLG
04633002;002;10;2019-09-27;1725;1;X;1;0;20200430100623-HB-632630;2;1;2019-09-27;18450301900012;FLG
04633008;004;10;2018-07-25;1725;1;X;1;0;20190412155630-HB-558623;2;1;2018-07-25;18450301900012;FLG
04108285;101;10;2018-08-01;1725;1;X;1;0;20190412155313-HB-558542;2;1;2018-08-01;18450301900012;FLG
04632005;002;10;2018-07-11;1725;1;X;1;0;20190412155423-HB-558570;2;1;2018-07-11;18450301900012;FLG
04140020;002;10;2018-05-23;1725;1;X;1;0;20190412155625-HB-558586;2;1;2018-05-23;18450301900012;FLG
04140020;002;10;2019-05-14;1725;1;X;1;0;20200430100829-HB-632766;2;1;2019-05-14;18450301900012;FLG
04123980;101;10;2019-07-12;1725;1;X;1;0;20200413164404-HB-630780;2;1;2019-07-12;22530001100015;FLG
04632009;004;10;2018-07-10;1725;1;X;1;0;20190412155423-HB-558569;2;1;2018-07-10;18450301900012;FLG
04140700;003;10;2018-05-22;1725;1;X;1;0;20190412155626-HB-558595;2;1;2018-05-22;18450301900012;FLG
04606000;003;10;2018-07-24;1725;1;X;1;0;20190412155502-HB-558582;2;1;2018-07-24;18450301900012;FLG
04139300;002;10;2018-05-22;1725;1;X;1;0;20190412155625-HB-558587;2;1;2018-05-22;18450301900012;FLG
04631003;004;10;2018-08-09;1725;1;X;1;0;20190412155633-HB-558641;2;1;2018-08-09;18450301900012;FLG
04601002;004;10;2018-07-12;1725;1;X;1;0;20190412155422-HB-558567;2;1;2018-07-12;18450301900012;FLG
04602012;003;10;2018-06-28;1725;1;X;1;0;20191209100004-HB-606227;2;1;2018-06-28;25720009700026;FLG
04632008;004;10;2019-09-26;1725;1;X;1;0;20200430100623-HB-632627;2;1;2019-09-26;18450301900012;FLG
04139050;101;10;2018-10-05;1725;1;X;1;0;20190412155307-HB-558501;2;1;2018-10-05;18450301900012;FLG
04156200;101;10;2018-07-27;1725;1;X;1;0;20190412155315-HB-558558;2;1;2018-07-27;18450301900012;FLG
04139050;101;10;2019-06-25;1725;1;X;1;0;20200430101116-HB-632992;2;1;2019-06-25;18450301900012;FLG
04156200;101;10;2019-08-21;1725;1;X;1;0;20200430101117-HB-633007;2;1;2019-08-21;18450301900012;FLG
04119205;001;10;2018-07-11;1725;1;X;1;0;20190412155628-HB-558606;2;1;2018-07-11;18450301900012;FLG
04112200;101;10;2018-08-08;1725;1;X;1;0;20190412155312-HB-558540;2;1;2018-08-08;18450301900012;FLG
04125500;101;10;2019-09-20;1725;1;X;1;0;20200430101114-HB-632979;2;1;2019-09-20;18450301900012;FLG
04123300;101;10;2019-09-25;1725;1;X;1;0;20200430100828-HB-632758;2;1;2019-09-25;18450301900012;FLG
04631000;002;10;2018-08-09;1725;1;X;1;0;20190412155633-HB-558642;2;1;2018-08-09;18450301900012;FLG
04125670;101;10;2019-07-25;1725;1;X;1;0;20200413164404-HB-630778;2;1;2019-07-25;22530001100015;FLG
04606013;003;10;2019-07-04;1725;1;X;1;0;20200413164404-HB-630779;2;1;2019-07-04;22530001100015;FLG
04633004;004;10;2018-09-20;1725;1;X;1;0;20190412155632-HB-558637;2;1;2018-09-20;18450301900012;FLG
04633004;004;10;2019-09-20;1725;1;X;1;0;20200430100833-HB-632793;2;1;2019-09-20;18450301900012;FLG
04632006;002;10;2018-08-10;1725;1;X;1;0;20190412155422-HB-558568;2;1;2018-08-10;18450301900012;FLG
04123950;101;10;2018-08-10;1725;1;X;1;0;20190412155422-HB-558563;2;1;2018-08-10;18450301900012;FLG
04113200;001;10;2019-07-04;1725;1;X;1;0;20200413164404-HB-630777;2;1;2019-07-04;22530001100015;FLG
04137993;101;10;2018-07-03;1725;1;X;1;0;20190412155307-HB-558502;2;1;2018-07-03;18450301900012;FLG
04600008;004;10;2019-09-25;1725;1;X;1;0;20200430100830-HB-632774;2;1;2019-09-25;18450301900012;FLG
04630011;003;10;2019-07-09;1725;1;X;1;0;20200413164404-HB-630776;2;1;2019-07-09;22530001100015;FLG
04601001;002;10;2018-07-12;1725;1;X;1;0;20190412155502-HB-558580;2;1;2018-07-12;18450301900012;FLG
04123900;101;10;2019-07-11;1725;1;X;1;0;20200413164403-HB-630774;2;1;2019-07-11;22530001100015;FLG
04123950;101;10;2019-07-11;1725;1;X;1;0;20200413164404-HB-630781;2;1;2019-07-11;22530001100015;FLG
04632047;006;10;2020-06-10;1725;1;X;1;0;20201028154015-HB-672556;2;1;2020-06-10;24530038900039;FLG
04632002;002;10;2018-08-10;1725;1;X;1;0;20190412155423-HB-558571;2;1;2018-08-10;18450301900012;FLG
04632002;002;10;2019-09-19;1725;1;X;1;0;20200430100623-HB-632626;2;1;2019-09-19;18450301900012;FLG
04632048;006;10;2020-06-10;1725;1;X;1;0;20201028154015-HB-672555;2;1;2020-06-10;24530038900039;FLG
04124875;101;10;2018-07-11;1725;1;X;1;0;20190412155313-HB-558547;2;1;2018-07-11;18450301900012;FLG
04124875;101;10;2019-09-26;1725;1;X;1;0;20200430101114-HB-632977;2;1;2019-09-26;18450301900012;FLG
04632046;004;10;2020-06-05;1725;1;X;1;0;20201028154015-HB-672554;2;1;2020-06-05;24530038900039;FLG
04591000;002;10;2019-07-17;1725;1;X;1;0;20200421175515-HB-631260;2;1;2019-07-17;22490001900015;FLG
04130000;101;10;2019-09-04;1725;1;X;1;0;20200413164405-HB-630784;2;1;2019-09-04;22530001100015;FLG
04126500;101;10;2019-09-05;1725;1;X;1;0;20200413164405-HB-630785;2;1;2019-09-05;22530001100015;FLG
04635017;006;10;2020-04-14;1725;1;X;1;0;20201216122142-HB-674387;2;1;2020-04-14;20008740100010;FLG
04604000;002;10;2019-08-27;1725;1;X;1;0;20200430100830-HB-632777;2;1;2019-08-27;18450301900012;FLG
04146000;101;10;2018-10-04;1725;1;X;1;0;20190412155310-HB-558524;2;1;2018-10-04;18450301900012;FLG
04118000;101;10;2018-08-23;1725;1;X;1;0;20190412155312-HB-558535;2;1;2018-08-23;18450301900012;FLG
04652001;004;10;2019-05-15;1725;1;X;1;0;20200430100833-HB-632796;2;1;2019-05-15;18450301900012;FLG
04146600;101;10;2018-09-12;1725;1;X;1;0;20190412155310-HB-558521;2;1;2018-09-12;18450301900012;FLG
04614005;004;10;2018-07-13;1725;1;X;1;0;20190412155633-HB-558643;2;1;2018-07-13;18450301900012;FLG
04602005;003;10;2018-06-28;1725;1;X;1;0;20190308154319-HB-508582;2;1;2018-06-28;25720009700026;FLG
04117750;101;10;2019-05-30;1725;1;X;1;0;20200430100828-HB-632754;2;1;2019-05-30;18450301900012;FLG
04602002;004;10;2019-05-30;1725;1;X;1;0;20200430100830-HB-632776;2;1;2019-05-30;18450301900012;FLG
04605002;004;10;2019-05-29;1725;1;X;1;0;20200430100831-HB-632782;2;1;2019-05-29;18450301900012;FLG
04615004;004;10;2019-05-15;1725;1;X;1;0;20200430100832-HB-632788;2;1;2019-05-15;18450301900012;FLG
04150640;101;10;2019-08-01;1725;1;X;1;0;20200430100835-HB-632812;2;1;2019-08-01;18450301900012;FLG
04103950;101;10;2019-07-31;1725;1;X;1;0;20200430101112-HB-632964;2;1;2019-07-31;18450301900012;FLG
04118000;101;10;2019-08-08;1725;1;X;1;0;20200430101113-HB-632972;2;1;2019-08-08;18450301900012;FLG
04150640;101;10;2018-07-18;1725;1;X;1;0;20190412155626-HB-558593;2;1;2018-07-18;18450301900012;FLG
04602003;004;10;2018-06-28;1725;1;X;1;0;20190308154319-HB-508580;2;1;2018-06-28;25720009700026;FLG
04141295;101;10;2019-07-04;1725;1;X;1;0;20200421175515-HB-631256;2;1;2019-07-04;22490001900015;FLG
04660000;004;10;2019-07-04;1725;1;X;1;0;20200421175514-HB-631250;2;1;2019-07-04;22490001900015;FLG
04124200;101;10;2019-07-25;1725;1;X;1;0;20200413164404-HB-630775;2;1;2019-07-25;22530001100015;FLG
04604006;004;10;2018-08-02;1725;1;X;1;0;20190412155632-HB-558632;2;1;2018-08-02;18450301900012;FLG
04135400;002;10;2019-05-16;1725;1;X;1;0;20200430100829-HB-632762;2;1;2019-05-16;18450301900012;FLG
04661002;002;10;2018-06-25;1725;1;X;1;0;20190327102329-HB-554954;2;1;2018-06-25;24440055200026;FLG
04661008;002;10;2018-06-25;1725;1;X;1;0;20190327102330-HB-554955;2;1;2018-06-25;24440055200026;FLG
04602008;004;10;2018-06-28;1725;1;X;1;0;20190308154319-HB-508581;2;1;2018-06-28;25720009700026;FLG
04131400;101;10;2017-09-12;1725;1;X;1;0;20190117171354-HB-471826;1;4;2017-09-12;22530001100015;FLG
04125400;101;10;2017-09-12;1725;1;X;1;0;20190117172437-HB-474062;1;4;2017-09-12;22530001100015;FLG
04148560;001;10;2018-08-01;1725;1;X;1;0;20190503102524-HB-562558;2;1;2018-08-01;22850001300658;FLG
04150800;101;10;2018-06-05;1725;1;X;1;0;20190503102524-HB-562561;2;1;2018-06-05;22850001300658;FLG
04148580;001;10;2018-06-28;1725;1;X;1;0;20190503102524-HB-562560;2;1;2018-06-28;22850001300658;FLG
04150870;101;10;2018-08-03;1725;1;X;1;0;20190503102525-HB-562563;2;1;2018-08-03;22850001300658;FLG
04148570;001;10;2018-08-01;1725;1;X;1;0;20190503102524-HB-562559;2;1;2018-08-01;22850001300658;FLG
04150850;101;10;2018-07-27;1725;1;X;1;0;20190503102525-HB-562562;2;1;2018-07-27;22850001300658;FLG
04602002;004;10;2018-07-05;1725;1;X;1;0;20190412155631-HB-558629;2;1;2018-07-05;18450301900012;FLG
04392004;004;10;2018-05-23;1725;1;X;1;0;20190909145313-HB-598696;2;1;2018-05-23;20002581500016;FLG
04392001;002;10;2018-05-23;1725;1;X;1;0;20190909145314-HB-598700;2;1;2018-05-23;20002581500016;FLG
04391003;004;10;2018-05-22;1725;1;X;1;0;20190909145315-HB-598710;2;1;2018-05-22;20002581500016;FLG
04104350;001;10;2018-10-04;1725;1;X;1;0;20190917110948-HB-600202;1;4;2018-10-04;25490002000036;FLG
04104300;001;10;2018-10-04;1725;1;X;1;0;20190917110948-HB-600206;1;4;2018-10-04;25490002000036;FLG
04592000;004;10;2018-10-04;1725;1;X;1;0;20190917110948-HB-600207;1;4;2018-10-04;25490002000036;FLG
04103960;001;10;2018-10-04;1725;1;X;1;0;20190917110947-HB-600200;1;4;2018-10-04;25490002000036;FLG
04591001;002;10;2018-10-04;1725;1;X;1;0;20190917110948-HB-600205;1;4;2018-10-04;25490002000036;FLG
04103935;001;10;2018-10-04;1725;1;X;1;0;20190917110948-HB-600201;1;4;2018-10-04;25490002000036;FLG
04590000;003;10;2018-10-04;1725;1;X;1;0;20190917110947-HB-600196;1;4;2018-10-04;25490002000036;FLG
04635012;002;10;2018-07-30;1725;1;X;1;0;20190417143832-HB-561963;2;1;2018-07-30;25530053500010;FLG
04215840;001;10;2018-05-23;1725;1;X;1;0;20190909145315-HB-598706;2;1;2018-05-23;20002581500016;FLG
04391000;002;10;2018-05-22;1725;1;X;1;0;20190909145313-HB-598694;2;1;2018-05-22;20002581500016;FLG
04391004;004;10;2018-05-22;1725;1;X;1;0;20190909145314-HB-598697;2;1;2018-05-22;20002581500016;FLG
04215635;001;10;2018-05-22;1725;1;X;1;0;20190909145315-HB-598709;2;1;2018-05-22;20002581500016;FLG
04215600;101;10;2018-05-22;1725;1;X;1;0;20190909145314-HB-598701;2;1;2018-05-22;20002581500016;FLG
04635011;002;10;2018-07-30;1725;1;X;1;0;20190417143833-HB-561964;2;1;2018-07-30;25530053500010;FLG
