﻿CdStationMesureEauxSurface;LbStationMesureEauxSurface;DurStationMesureEauxSurface;CoordXStationMesureEauxSurface;CoordYStationMesureEauxSurface;CdProjStationMesureEauxSurface;LibelleProjection;CodeCommune;LbCommune;CodeDepartement;LbDepartement;CodeRegion;LbRegion;CdMasseDEau;CdEuMasseDEau;NomMasseDEau;CdEuSsBassinDCEAdmin;NomSsBassinDCEAdmin;CdBassinDCE;CdEuBassinDCE;NomEuBassinDCE;CdTronconHydrographique;CdCoursdEau;NomCoursdEau;CodeTypEthStationMesureEauxSurface;LibelleTypEthStationMesureEauxSurface;ComStationMesureEauxSurface;DateCreationStationMesureEauxSurface;DateArretActiviteStationMesureEauxSurface;DateMAJInfosStationMesureEauxSurface;FinaliteStationMesureEauxSurface;LocPreciseStationMesureEauxSurface;CodeNatureStationMesureEauxSurface;LibelleNatureStationMesureEauxSurface;AltitudePointCaracteritisque;PkPointTronconEntiteHydroPrincipale;PremierMoisAnneeEtiage;SuperficieBassinVersantReel;SuperficieBassinVersantTopo
04633005;RAU DE CORMIER A BACONNIERE (LA);;413791.2;6794367;26;RGF93 / Lambert 93;53015;La Baconnière;53;Mayenne;52;Pays de la Loire;FRGR1299;;;;;;;;M3327500;M3327500;le Cormier;2;Station qualité située sur un cours d'eau;Site Eau à l'amont du pont, intégrant l'affluent en rive gauche.;1900-01-01;;2012-02-03;Non renseigné;LIEU-DIT HOUDEOT;;;;999511;;;
04632011;R OURDE A SAINT-AUBIN-FOSSE-LOUVAIN;;416108.1;6825466;26;RGF93 / Lambert 93;53199;Saint-Aubin-Fosse-Louvain;53;Mayenne;52;Pays de la Loire;FRGR1416;;;;;;;;M3214000;M3214000;l'Ourde;2;Station qualité située sur un cours d'eau;Site Eau à l'amont immédiat du pont CD 141;1900-01-01;;2012-02-03;Non renseigné;LIEU-DIT LA LANDE - PONT CD141;;;;997750;;;
04128490;MAYENNE à LOIGNE-SUR-MAYENNE;;423680.8;6758530;26;RGF93 / Lambert 93;53136;La Roche-Neuville;53;Mayenne;52;Pays de la Loire;;;;;;;;;M3520090;M---0090;la Mayenne;2;Station qualité située sur un cours d'eau;MAYENNE;1900-01-01;;2010-03-04;Non renseigné;PRISE D'EAU POTABLE VERS LE LIEU-DIT CHAUDURE;;;;942411;;;
04632001;RAU DU BAILLEUL À HERCE;;414446.4;6820238;26;RGF93 / Lambert 93;53115;Hercé;53;Mayenne;52;Pays de la Loire;FRGR1397;;;;;;;;M3218800;M3218800;le Bailleul;2;Station qualité située sur un cours d'eau;;1900-01-01;;2010-12-17;Non renseigné;_;;;;996780;;;
04632002;RAU DE LA GAUBERDIERE À COLOMBIERS-DU-PLESSIS;;415702;6817736;26;RGF93 / Lambert 93;53071;Colombiers-du-Plessis;53;Mayenne;52;Pays de la Loire;FRGR1388;;;;;;;;M3224000;M3224000;la Gauberdière;2;Station qualité située sur un cours d'eau;;1900-01-01;;2010-12-17;Non renseigné;LIEU-DIT LA GRAFFARDIERE;;;;996724;;;
04630004;RAU D'ANGLAINE À SAINT-JULIEN-DU-TERROUX;;448885.2;6823148;26;RGF93 / Lambert 93;53230;Saint-Julien-du-Terroux;53;Mayenne;52;Pays de la Loire;FRGR1419;;;;;;;;M3024300;M3024300;l'Anglaine;2;Station qualité située sur un cours d'eau;A l'amont du pont et de l'abreuvoir à bovins.;1900-01-01;;2011-10-06;Non renseigné;LIEU-DIT LE TENAY - PONT DU CHEMIN RELIANT LE CD147 AU CD264;;;;992905;;;
04630003;RAU DE LASSAY À LASAY-LES-CHATEAU;;438186.1;6821988;26;RGF93 / Lambert 93;53127;Lassay-les-Châteaux;53;Mayenne;52;Pays de la Loire;FRGR1409;;;;;;;;M3064000;M3064000;le Lassay;2;Station qualité située sur un cours d'eau;Traverser la pâture (50 m). Site à l'amont de la station, à proximité d'un radier.;1900-01-01;;2011-10-06;Non renseigné;ENVIRON 250 M À L'AVAL DU PONT DU CD243;;;;995608;;;
04631003;RAU DE FROULAY A COUESMES-VAUCE;;427527.1;6823700;26;RGF93 / Lambert 93;53079;Couesmes-Vaucé;53;Mayenne;52;Pays de la Loire;FRGR1410;;;;;;;;M3144500;M3144500;le Froulay;2;Station qualité située sur un cours d'eau;A l'aval immédiat du pont.;1900-01-01;;2012-02-03;Non renseigné;LIEU-DIT LA HOULARDAIS;;;;997156;;;
04124850;MAYENNE à SAINT-BAUDELLE;;430866.2;6804100;26;RGF93 / Lambert 93;53200;Saint-Baudelle;53;Mayenne;52;Pays de la Loire;;;;;;;;;M3230090;M---0090;la Mayenne;2;Station qualité située sur un cours d'eau;MAYENNE;1900-01-01;;2010-06-08;Evaluation;PONT D217 - AVAL MAYENNE;;;;880171;;;
04131050;RAU DE L'UZURE À BALLOTS;;394326.8;6759808;26;RGF93 / Lambert 93;53018;Ballots;53;Mayenne;52;Pays de la Loire;FRGR1574;;;;;;;;M3744000;M3744000;l'Usure;2;Station qualité située sur un cours d'eau;;1900-01-01;;2013-10-16;Non renseigné;PONT D592 - LIEU-DIT LA GARDIERE;;;;984337;;;
04631001;RAU DU GUIN À OISSEAU;;428305;6817320;26;RGF93 / Lambert 93;53170;Oisseau;53;Mayenne;52;Pays de la Loire;FRGR1386;;;;;;;;M3148400;M3148400;le Guint;2;Station qualité située sur un cours d'eau;;1900-01-01;;2011-02-16;Non renseigné;PONT RELIANT LE LIEU-DIT LA BRICHARDIERE À LA D33;;;;996359;;;
04632004;RAU DES HAIES À COMMER;;429852.2;6799246;26;RGF93 / Lambert 93;53072;Commer;53;Mayenne;52;Pays de la Loire;FRGR1318;;;;;;;;M3266300;M3266300;les Haies;2;Station qualité située sur un cours d'eau;;1900-01-01;;2011-03-11;Non renseigné;PONT AU  NIVEAU DU LIEU-DIT LES HAIES;;;;998306;;;
04632005;RAU DU FAUCONNIER À SAINT-GEORGES-BUTTAVENT;;427208.8;6805996;26;RGF93 / Lambert 93;53219;Saint-Georges-Buttavent;53;Mayenne;52;Pays de la Loire;FRGR1354;;;;;;;;M3264100;M3264100;le Fontaine Daniel;2;Station qualité située sur un cours d'eau;;1900-01-01;;2010-12-17;Non renseigné;LIEU-DIT LE FAUCONNIER;;;;993041;;;
04632008;RAU DE PIGRAY À SAINT-FRAIMBAULT-DES-PRIERES;;435536.7;6813795;26;RGF93 / Lambert 93;53216;Saint-Fraimbault-de-Prières;53;Mayenne;52;Pays de la Loire;FRGR1377;;;;;;;;M3234300;M3234300;le Pigray;2;Station qualité située sur un cours d'eau;A l'amont immédiat du pont du chemin de randonnée;1900-01-01;;2011-10-18;Non renseigné;LIEU-DIT SARCIGNÉ;;;;998049;;;
04631019;LE BURON A AMBRIÈRES LES VALLÉES;;428585.5;6819190;26;RGF93 / Lambert 93;53003;Ambrières-les-Vallées;53;Mayenne;52;Pays de la Loire;FRGR1392;;;;;;;;M3147600;M3147600;le Buron;2;Station qualité située sur un cours d'eau;lien CT Egrenne Varenne Point aval du BV\n\n;1900-01-01;;2020-01-28;Evaluation;LA CHARMOYERE;;;;996799.347;;;
04633001;RAU DU BOIS BERANGERAU À ERNEE;;408534.2;6810310;26;RGF93 / Lambert 93;53096;Ernée;53;Mayenne;52;Pays de la Loire;FRGR1375;;;;;;;;M3307700;M3307700;le Bois Béranger;2;Station qualité située sur un cours d'eau;;1900-01-01;;2011-02-17;Non renseigné;ROUTE RELIANT LES LIEUX-DITS LA JEUSSERIE ET LE TREMBLAY;;;;999422;;;
04632039;OURDE A SAINT-AUBIN-FOSSE-LOUVAIN;;417683.6;6825477;26;RGF93 / Lambert 93;53199;Saint-Aubin-Fosse-Louvain;53;Mayenne;52;Pays de la Loire;FRGR1416;;;;;;;;M3214000;M3214000;l'Ourde;2;Station qualité située sur un cours d'eau;;1900-01-01;;2016-07-01;Evaluation;PONT GROLAY ENTRE ST AUBIN FOSSE LOUVAIN (D141) L'EPINAY LE C (D21);;;;998677.016;;;
04123812;RAU LE BURON A LE PAS;;425102;6818261;26;RGF93 / Lambert 93;53176;Le Pas;53;Mayenne;52;Pays de la Loire;FRGR1392;;;;;;;;M3147600;M3147600;le Buron;2;Station qualité située sur un cours d'eau;PCE\n;1900-01-01;;2015-01-07;Non renseigné;AVAL IMMEDIAT PONT ENTRE D33 ET LD LA FRENOUSE;;;;992764;;;
04630002;RAU DE VIENNE À CHANTRIGNE;;434458.8;6818130;26;RGF93 / Lambert 93;53055;Chantrigné;53;Mayenne;52;Pays de la Loire;FRGR1393;;;;;;;;M3066700;M3066700;le Vienne;2;Station qualité située sur un cours d'eau;Prélèvement 50 m en aval du pont (grand aulne en rive droite);1900-01-01;;2011-10-06;Non renseigné;LIEU-DIT LA CHEVRIE;;;;998281;;;
04131250;CHERAN à CONGRIER;;391904.16;6754038.51;26;RGF93 / Lambert 93;53073;Congrier;53;Mayenne;52;Pays de la Loire;;;;;;;;;M3774000;M3774000;le Chéran;2;Station qualité située sur un cours d'eau;;1900-01-01;;2013-10-16;Non renseigné;PONT D110 - AMONT STEP;;;;981213;;;
04123825;COLMONT à FOUGEROLLES-DU-PLESSIS;;410542.9;6830490;26;RGF93 / Lambert 93;53100;Fougerolles-du-Plessis;53;Mayenne;52;Pays de la Loire;FRGR1595;;;;;;;;M3200300;M32-0300;la Colmont;2;Station qualité située sur un cours d'eau;;1900-01-01;;2011-01-11;Non renseigné;LIEU DIT LE MEZERAIS EN AVAL DU PONT;;;;952245;;;
04131100;RAU DE L'UZURE À NIAFLES;;400847;6756706;26;RGF93 / Lambert 93;53165;Niafles;53;Mayenne;52;Pays de la Loire;;;;;;;;;M3744000;M3744000;l'Usure;2;Station qualité située sur un cours d'eau;;1900-01-01;;2014-12-18;Non renseigné;PASSERELLE - FERME LES PLANCHES;;;;995118.706;;;
04601003;ORNETTE À SAINT-PIERRE-DES-NIDS;;471244.3;6812752;26;RGF93 / Lambert 93;53246;Saint-Pierre-des-Nids;53;Mayenne;52;Pays de la Loire;FRGR1398;;;;;;;;M0104000;M0104000;l'Ornette;2;Station qualité située sur un cours d'eau;100 m à l'aval de l'affluence du ruisseau le Terrenèon;1900-01-01;;2011-10-06;Non renseigné;AVAL PONT CD505 - AMONT HAMEAU LA RIBOTIÈRE;;;;998705;;;
04633007;R OSCENCE A MONTENAY;;411937.9;6804272;26;RGF93 / Lambert 93;53155;Montenay;53;Mayenne;52;Pays de la Loire;FRGR1359;;;;;;;;M3317400;M3317400;l'Oscence;2;Station qualité située sur un cours d'eau;Prélèvement à l'amont immédiat du pont;1900-01-01;;2012-02-03;Non renseigné;LIEU-DIT LE CHATEAU;;;;997170;;;
04123950;RAU DU PARC ou  DES MESSENDIERES à BRECE;;419537.2;6816540;26;RGF93 / Lambert 93;53042;Brecé;53;Mayenne;52;Pays de la Loire;FRGR1376;;;;;;;;M3225900;M3225900;les Messendières;2;Station qualité située sur un cours d'eau;;1900-01-01;;2013-02-19;Non renseigné;LIEU DIT L ECLUSE EN AVAL DU PONT;;;;999662;;;
04125740;VAUMORIN À CHAILLAND;;412067.7;6799040;26;RGF93 / Lambert 93;53048;Chailland;53;Mayenne;52;Pays de la Loire;FRGR1320;;;;;;;;M3326000;M3326000;le Vaumorin;2;Station qualité située sur un cours d'eau;;1900-01-01;;2011-02-15;Non renseigné;PONT DE LA D165 À CHAILLAND;;;;999257;;;
04630012;ANGLAINE A MADRE;;449574.5;6823798;26;RGF93 / Lambert 93;53142;Madré;53;Mayenne;52;Pays de la Loire;FRGR1419;;;;;;;;M3024300;M3024300;l'Anglaine;2;Station qualité située sur un cours d'eau;Présence d'un rejet de STEP\n\n;1900-01-01;;2017-11-10;Bilan;L'ANGLAINE APRES LA CONFLUENCE AVEC LE RU DE VALORE;;;;994425.764;;;
04125450;ERNEE à SAINT-DENIS-DE-GASTINES;;409330.4;6815180;26;RGF93 / Lambert 93;53211;Saint-Denis-de-Gastines;53;Mayenne;52;Pays de la Loire;FRGR1591;;;;;;;;M3300300;M33-0300;l'Ernée;2;Station qualité située sur un cours d'eau;;1900-01-01;;2013-10-16;Non renseigné;LIEU DIT LES VAUX EN AVAL DU PONT;;;;942206;;;
04634005;RAU DE LA JARRIAIS À GESNES;;433902.6;6789226;26;RGF93 / Lambert 93;53105;Gesnes;53;Mayenne;52;Pays de la Loire;FRGR1302;;;;;;;;M3424100;M3424100;la Jarriais;2;Station qualité située sur un cours d'eau;Prélèvement à l'amont du pont du CD 276;1900-01-01;;2011-10-06;Non renseigné;PONT CD276;;;;997522;;;
04633006;RAU DE VILLENEUVE A CHAILLAND;;412783;6797960;26;RGF93 / Lambert 93;53048;Chailland;53;Mayenne;52;Pays de la Loire;FRGR1311;;;;;;;;M3326500;M3326500;le Villeneuve;2;Station qualité située sur un cours d'eau;;1900-01-01;;2012-02-03;Non renseigné;PONT D548 LIEU-DIT LE PETIT VAL AU BOURDAIS;;;;999818;;;
04632010;RAU DE GASTARD A ANDOUILLE;;421469.8;6794326;26;RGF93 / Lambert 93;53005;Andouillé;53;Mayenne;52;Pays de la Loire;FRGR1300;;;;;;;;M3277000;M3277000;le Gastard;2;Station qualité située sur un cours d'eau;Prélèvement en aval du pont;1900-01-01;;2012-02-03;Non renseigné;PONT D225 LIEU-DIT LA TOURMONTIERE;;;;998980;;;
04630011;ANGLAINE A MADRE;;449457.3;6827516;26;RGF93 / Lambert 93;53142;Madré;53;Mayenne;52;Pays de la Loire;FRGR1419;;;;;;;;M3024300;M3024300;l'Anglaine;2;Station qualité située sur un cours d'eau;Point de contrôle du sous bassin versant de l'Anglaine\n\n;1900-01-01;;2017-11-10;Bilan;L'ANGLAINE AVANT LA CONFLUENCE AVEC LA MAYENNE;;;;999035.954;;;
04130000;MAYENNE à DAON;;427122.87;6745055.26;26;RGF93 / Lambert 93;53089;Daon;53;Mayenne;52;Pays de la Loire;;;;;;;;;M3620090;M---0090;la Mayenne;2;Station qualité située sur un cours d'eau;MAYENNE;1900-01-01;;2001-02-28;Evaluation;PONT DE LA D213;;;;960510;;;
04631000;RAU AVERSALE À LE PAS;;427672;6821083;26;RGF93 / Lambert 93;53176;Le Pas;53;Mayenne;52;Pays de la Loire;FRGR1407;;;;;;;;M3146300;M3146300;l'Aversale;2;Station qualité située sur un cours d'eau;;1900-01-01;;2010-12-17;Non renseigné;LIEU-DIT BAZEILLE;;;;996670;;;
04630005;RAU DE LA DOURDIERE À THUBOEUF;;447078.2;6827336;26;RGF93 / Lambert 93;53263;Thubœuf;53;Mayenne;52;Pays de la Loire;FRGR1420;;;;;;;;M3044300;M3044300;la Douardière;2;Station qualité située sur un cours d'eau;Prélèvement 10 m à l'amont du pont.;1900-01-01;;2011-10-06;Non renseigné;LIEU-DIT LES BAS BUATS;;;;998570;;;
04632048;LE VIEUVY A VIEUVY;;414456;6823099;26;RGF93 / Lambert 93;53270;Vieuvy;53;Mayenne;52;Pays de la Loire;FRGR1416;;;;;;;;M3217100;M3217100;;2;Station qualité située sur un cours d'eau;SUIVI QUALITE EAU\n\n;1900-01-01;;2020-09-18;Evaluation;CENTRE BOURG;;;;996600.08;;;
04632044;LE FONTAINE DANIEL A CONTEST;;427901.1;6802269;26;RGF93 / Lambert 93;53074;Contest;53;Mayenne;52;Pays de la Loire;FRGR1354;;;;;;;;M3264100;M3264100;le Fontaine Daniel;2;Station qualité située sur un cours d'eau;lien CTMA SYBAMA 2020 Point Aval du BV\n\n;1900-01-01;;2020-01-28;Evaluation;ANVORE;;;;999667.748;;;
04632046;LA COLMONT A FOUGEROLLES DU PLESSIS;;411314;6828987;26;RGF93 / Lambert 93;53100;Fougerolles-du-Plessis;53;Mayenne;52;Pays de la Loire;FRGR1595;;;;;;;;M3200300;M32-0300;la Colmont;2;Station qualité située sur un cours d'eau;SUIVI QUALITE EAU\n\n;1900-01-01;;2020-09-18;Evaluation;LA MAILLARDIERE;;;;955051.303;;;
04131300;CHERAN à LA BOISSIERE;;401631.9;6750138;26;RGF93 / Lambert 93;53033;La Boissière;53;Mayenne;52;Pays de la Loire;;;;;;;;;M3774000;M3774000;le Chéran;2;Station qualité située sur un cours d'eau;;1900-01-01;;2013-02-18;Non renseigné;PONT D228;;;;994738;;;
04633008;RAU DE MONTGUERET A MONTENAY;;407712.7;6804434;26;RGF93 / Lambert 93;53155;Montenay;53;Mayenne;52;Pays de la Loire;FRGR1335;;;;;;;;M3315600;M3315600;la Montgueret;2;Station qualité située sur un cours d'eau;Prélèvement en amont de la passerelle;1900-01-01;;2012-02-03;Non renseigné;200M EN AVAL DU PONT D514, LIEU-DIT LE PONT DE PIERRE;;;;998013;;;
04633002;RAU DE LA PERCHE À MONTENAY;;414902.6;6803069;26;RGF93 / Lambert 93;53155;Montenay;53;Mayenne;52;Pays de la Loire;FRGR1352;;;;;;;;M3324000;M3324000;la Perche;2;Station qualité située sur un cours d'eau;;1900-01-01;;2011-02-17;Non renseigné;PONT DE LA ROUTE MENANT AU LIEU DIT LA MENARDAIS;;;;998214;;;
04129000;MAYENNE à CHATEAU-GONTIER;;422969.41;6754793.68;26;RGF93 / Lambert 93;53062;Château-Gontier-sur-Mayenne;53;Mayenne;52;Pays de la Loire;;;;;;;;;M3600090;M---0090;la Mayenne;2;Station qualité située sur un cours d'eau;MAYENNE;1900-01-01;;2007-11-07;Non renseignée;FACE A LA PRISE D'EAU DE LA VILLE;;;;946451;;;
04632040;LE BAILLEUL A GORRON;;417279.6;6820219;26;RGF93 / Lambert 93;53107;Gorron;53;Mayenne;52;Pays de la Loire;FRGR1397;;;;;;;;M3218800;M3218800;le Bailleul;2;Station qualité située sur un cours d'eau;;1900-01-01;;2016-07-01;Evaluation;AU NIVEAU DE LA CONFLUENCE AVEC LA COLMONT;;;;999881.002;;;
04637000;RAU DE LA PELLETERIE A BALLOTS;;397270.3;6760455;26;RGF93 / Lambert 93;53018;Ballots;53;Mayenne;52;Pays de la Loire;FRGR1575;;;;;;;;M3744200;M3744200;la Pelleterie;2;Station qualité située sur un cours d'eau;;1900-01-01;;2011-11-23;Non renseigné;LA HAUTE MOTTE;;;;998872;;;
04632026;LA COLMONT A DESERTINES;;412535;6828853;26;RGF93 / Lambert 93;53091;Désertines;53;Mayenne;52;Pays de la Loire;FRGR1595;;;;;;;;M3200300;M32-0300;la Colmont;2;Station qualité située sur un cours d'eau;;1900-01-01;;2013-10-23;Inconnue;PONT D602 AU LIEU-DIT L'OGERIE;;;;956198.517;;;
04200595;VILAINE à BOURGON;;398520;6795108;26;RGF93 / Lambert 93;53040;Bourgon;53;Mayenne;52;Pays de la Loire;;;;;;;;;J7000060;J---0060;la Vilaine;2;Station qualité située sur un cours d'eau;;1900-01-01;;2013-12-05;Non renseigné;PONT D106;;;;798049.504;;;
04632009;RAU DU GLAINTIN À SAIN-FRAIMBAULT-DES-PRIERES;;435556.8;6809612;26;RGF93 / Lambert 93;53216;Saint-Fraimbault-de-Prières;53;Mayenne;52;Pays de la Loire;FRGR1368;;;;;;;;M3235300;M3235300;l'Ollon;2;Station qualité située sur un cours d'eau;Prélèvement le plus en amont possible (proximité clâture).;1900-01-01;;2011-10-06;Non renseigné;PONT D151 - LIEU-DIT LA BOUSSARDIÈRE;;;;997074;;;
04632047;L'OURDE A DESERTINES;;414975;6825077;26;RGF93 / Lambert 93;53091;Désertines;53;Mayenne;52;Pays de la Loire;FRGR1416;;;;;;;;M3214000;M3214000;l'Ourde;2;Station qualité située sur un cours d'eau;SUIVI QUALITE EAU\n\n;1900-01-01;;2020-09-23;Evaluation;LA PRINGAUDIERE;;;;995314.054;;;
04126000;MAYENNE à LAVAL;;419177.34;6782844.67;26;RGF93 / Lambert 93;53130;Laval;53;Mayenne;52;Pays de la Loire;;;;;;;;;M3330090;M---0090;la Mayenne;2;Station qualité située sur un cours d'eau;MAYENNE;1900-01-01;;2001-02-28;Non renseignée;AU DROIT D162 CHANGE LAVAL - PRISE D'EAU DE LAVAL;;;;910437;;;
04125400;MAYENNE à SAINT-JEAN-SUR-MAYENNE;;421182.74;6788762.2;26;RGF93 / Lambert 93;53229;Saint-Jean-sur-Mayenne;53;Mayenne;52;Pays de la Loire;;;;;;;;;M3270090;M---0090;la Mayenne;2;Station qualité située sur un cours d'eau;MAYENNE;1900-01-01;;2013-02-18;Non renseigné;STATION DE POMPAGE;;;;902508;;;
04126500;MAYENNE à L'HUISSERIE;;421214.25;6774597.57;26;RGF93 / Lambert 93;53119;L'Huisserie;53;Mayenne;52;Pays de la Loire;;;;;;;;;M3340090;M---0090;la Mayenne;2;Station qualité située sur un cours d'eau;MAYENNE;1900-01-01;;2001-02-28;Evaluation;AMONT IMMEDIAT ECLUSE DE BONNE;;;;919803;;;
04632006;RAU DE LA TURLIERE À BRECE;;418890.9;6816785;26;RGF93 / Lambert 93;53042;Brecé;53;Mayenne;52;Pays de la Loire;FRGR1382;;;;;;;;M3225100;M3225100;la Turlière;2;Station qualité située sur un cours d'eau;;1900-01-01;;2011-02-16;Non renseigné;PONT DE LA D504 ENTRE BRECE ET COLOMBIERS DU PLESSIS;;;;999735;;;
04632025;ANXURE À SAINT-GERMAIN-D'ANXURE;;422920.5;6798214;26;RGF93 / Lambert 93;53222;Saint-Germain-d'Anxure;53;Mayenne;52;Pays de la Loire;FRGR1331;;;;;;;;M3274000;M3274000;l'Anxure;2;Station qualité située sur un cours d'eau;Site Eau à l'amont du pont CD 225;1900-01-01;;2012-07-11;Non renseigné;LIEU-DIT LE PONT D'ANXURE;;;;996388;;;
04633004;RAU ROLLON A SAINT-PIERRE-DES-LANDES;;405676.3;6810057;26;RGF93 / Lambert 93;53245;Saint-Pierre-des-Landes;53;Mayenne;52;Pays de la Loire;FRGR1361;;;;;;;;M3314000;M3314000;le Rollon;2;Station qualité située sur un cours d'eau;Site Eau à l'amont immédiat du pont;1900-01-01;;2012-02-03;Non renseigné;LIEU-DIT LA ROUSSELAIE;;;;996126;;;
04124200;MAYENNE à SAINT-FRAIMBAULT-DE-PRIERES;;434141.64;6813152.95;26;RGF93 / Lambert 93;53216;Saint-Fraimbault-de-Prières;53;Mayenne;52;Pays de la Loire;;;;;;;;;M3230090;M---0090;la Mayenne;2;Station qualité située sur un cours d'eau;Suivi de la rivière la Mayenne en aval de la retenue (sortie de la surverse du barrage)\n;1900-01-01;;2007-11-07;Evaluation;AU NIVEAU DE LA PRISE D'EAU;;;;869634;;;
04633014;BOIS BERANGER A ERNEE;;408483.8;6810284;26;RGF93 / Lambert 93;53096;Ernée;53;Mayenne;52;Pays de la Loire;FRGR1375;;;;;;;;M3307700;M3307700;le Bois Béranger;2;Station qualité située sur un cours d'eau;Exutoire sous bassin versant du Bois Béranger\n\n;1900-01-01;;2016-07-11;Evaluation;LIEUX DIT "LA JEUSSERIE";;;;999425.806;;;
M306999;RETENUE DE SAINT FRAIMBAULT à LA HAIE-TRAVERSAINE;;433760.36;6813182.43;26;RGF93 / Lambert 93;53111;La Haie-Traversaine;53;Mayenne;52;Pays de la Loire;GL117;FRGL117;RETENUE DE SAINT FRAIMBAULT;FRG_MSL;Mayenne - Sarthe - Loir;G;FRG;La Loire, les cours d'eau côtiers vendéens et bretons;M3230090;M---0090;la Mayenne;1;Station qualité située sur un plan d'eau;Coordonnées du point le plus profond (points de prélèvement eau et sédiment);1900-01-01;;2008-10-01;Non renseignée;RETENUE DE SAINT FRAIMBAULT A LA HAIE-TRAVERSAINE;;;;865410.177;;;
04119750;ERVE à CHAMMES;;449442.4;6781307;26;RGF93 / Lambert 93;53255;Sainte-Suzanne-et-Chammes;53;Mayenne;52;Pays de la Loire;GR0486;FRGR0486;L'ERVE ET SES AFFLUENTS DEPUIS LA SOURCE JUSQU'A LA CONFLUENCE AVEC LE TREULON;FRG_MSL;Mayenne - Sarthe - Loir;G;FRG;La Loire, les cours d'eau côtiers vendéens et bretons;M0610300;M06-0300;l'Erve;2;Station qualité située sur un cours d'eau;ERVE;1900-01-01;;2010-03-03;Non renseignée;LES FORGES;;;;952369;;;
04123900;COLMONT à GORRON;;417433.11;6820138.35;26;RGF93 / Lambert 93;53107;Gorron;53;Mayenne;52;Pays de la Loire;GR0512;FRGR0512;LA COLMONT DEPUIS HEUSSE JUSQU'A LA RETENUE DE SAINT FRAIMBAULT;FRG_MSL;Mayenne - Sarthe - Loir;G;FRG;La Loire, les cours d'eau côtiers vendéens et bretons;M3210300;M32-0300;la Colmont;2;Station qualité située sur un cours d'eau;COLMONT;1900-01-01;;2013-03-05;Non renseignée;PRISE D'EAU STATION DE TRAITEMENT;;;;975274;;;
04634002;R JOUANNE À BONCHAMP-LES-LAVAL;;427012.3;6779768;26;RGF93 / Lambert 93;53034;Bonchamp-lès-Laval;53;Mayenne;52;Pays de la Loire;GR0516;FRGR0516;LA JOUANNE DEPUIS LA CONFLUENCE DU RUISSEAU DES DEUX EVAILLES JUSQU'A LA CONFLUENCE AVEC LA MAYENNE;FRG_MSL;Mayenne - Sarthe - Loir;G;FRG;La Loire, les cours d'eau côtiers vendéens et bretons;M3420300;M34-0300;la Jouanne;2;Station qualité située sur un cours d'eau;;1900-01-01;;2014-02-07;Inconnue;EN AMONT DU LD CHATEAU DES ROCHES-AU PONT RG;;;;984595;;;
04129100;RAU DE ROUILLARD À MENIL;;423623.5;6747580;26;RGF93 / Lambert 93;53150;Ménil;53;Mayenne;52;Pays de la Loire;GR1135;FRGR1135;LE ROUILLARD ET SES AFFLUENTS DEPUIS LA SOURCE JUSQU'A LA CONFLUENCE AVEC LA MAYENNE;FRG_MSL;Mayenne - Sarthe - Loir;G;FRG;La Loire, les cours d'eau côtiers vendéens et bretons;M3614100;M3614100;le Rouillard;2;Station qualité située sur un cours d'eau;;1900-01-01;;2011-01-20;Non renseigné;_;;;;998722;;;
04633009;RAU DE MOYETTE A SAINT-GERMAIN-LE-FOUILLOUX;;417118;6788585;26;RGF93 / Lambert 93;53224;Saint-Germain-le-Fouilloux;53;Mayenne;52;Pays de la Loire;GR1277;FRGR1277;LE MOYETTE ET SES AFFLUENTS DEPUIS LA SOURCE JUSQU'A LA CONFLUENCE AVEC LA MAYENNE;FRG_MSL;Mayenne - Sarthe - Loir;G;FRG;La Loire, les cours d'eau côtiers vendéens et bretons;M3334100;M3334100;le Moyette;2;Station qualité située sur un cours d'eau;;1900-01-01;;2015-11-05;Inconnue;D133 AU NIVEAU DU LD LA BOUVRIE;;;;999096.139;;;
04635011;RAU DE LA PROROTERIE A AHUILLE;;411287;6775854;26;RGF93 / Lambert 93;53001;Ahuillé;53;Mayenne;52;Pays de la Loire;GR0517;FRGR0517;LE VICOIN ET SES AFFLUENTS DEPUIS LA SOURCE JUSQU'A LA CONFLUENCE AVEC LA MAYENNE;FRG_MSL;Mayenne - Sarthe - Loir;G;FRG;La Loire, les cours d'eau côtiers vendéens et bretons;M3508720;M3508720;;2;Station qualité située sur un cours d'eau;;1900-01-01;;2016-01-11;Bilan;20 M EN AVAL DE LA ROUTE;;;;999348.32;;;
04633016;ERNEE A SAINT-DENIS-DE-GASTINES;;409355.1;6814954;26;RGF93 / Lambert 93;53211;Saint-Denis-de-Gastines;53;Mayenne;52;Pays de la Loire;GR0514;FRGR0514;L'ERNEE DEPUIS SAINT-DENIS-DE-GASTINES JUSQU'A LA CONFLUENCE AVEC LA MAYENNE;FRG_MSL;Mayenne - Sarthe - Loir;G;FRG;La Loire, les cours d'eau côtiers vendéens et bretons;M3300300;M33-0300;l'Ernée;2;Station qualité située sur un cours d'eau;Exutoire du sous bassin amont de la prise d'eau\n\n;1900-01-01;;2016-07-11;Evaluation;LIEUX DIT "LES VAUX" (CARELLES);;;;942831;;;
04125670;ERNEE à MONTENAY;;408522.01;6804461.77;26;RGF93 / Lambert 93;53155;Montenay;53;Mayenne;52;Pays de la Loire;GR0514;FRGR0514;L'ERNEE DEPUIS SAINT-DENIS-DE-GASTINES JUSQU'A LA CONFLUENCE AVEC LA MAYENNE;FRG_MSL;Mayenne - Sarthe - Loir;G;FRG;La Loire, les cours d'eau côtiers vendéens et bretons;M3310300;M33-0300;l'Ernée;2;Station qualité située sur un cours d'eau;ERNÉE;1900-01-01;;2007-07-20;Non renseignée;L-D LE VASSEAU;;;;957611;;;
04124985;ARON à MOULAY;;431554.6;6802740;26;RGF93 / Lambert 93;53162;Moulay;53;Mayenne;52;Pays de la Loire;GR0513;FRGR0513;L'ARON ET SES AFFLUENTS DEPUIS LA SOURCE JUSQU'A LA CONFLUENCE AVEC LA MAYENNE;FRG_MSL;Mayenne - Sarthe - Loir;G;FRG;La Loire, les cours d'eau côtiers vendéens et bretons;M3250310;M32-0310;l'Aron;2;Station qualité située sur un cours d'eau;;1900-01-01;;2010-03-03;Non renseigné;LIEU-DIT LA RABOTIERE AVAL PASSERELLE;;;;998557;;;
04124875;OISILLY à CHAMPGENETEUX;;449543.8;6803697;26;RGF93 / Lambert 93;53053;Champgenéteux;53;Mayenne;52;Pays de la Loire;GR0513;FRGR0513;L'ARON ET SES AFFLUENTS DEPUIS LA SOURCE JUSQU'A LA CONFLUENCE AVEC LA MAYENNE;FRG_MSL;Mayenne - Sarthe - Loir;G;FRG;La Loire, les cours d'eau côtiers vendéens et bretons;M3245600;M3245600;oisilly;2;Station qualité située sur un cours d'eau;;1900-01-01;;2010-06-08;Non renseignée;LIEU-DIT SAINTE-MARIE - PONT C3;;;;996806;;;
04125350;RAU DE LA GUYARDIERE À SACE;;425267.9;6793374;26;RGF93 / Lambert 93;53195;Sacé;53;Mayenne;52;Pays de la Loire;GR1294;FRGR1294;L'OUVRAIN ET SES AFFLUENTS DEPUIS LA SOURCE JUSQU'A LA CONFLUENCE AVEC LA MAYENNE;FRG_MSL;Mayenne - Sarthe - Loir;G;FRG;La Loire, les cours d'eau côtiers vendéens et bretons;M3276400;M3276400;l'Ouvrin;2;Station qualité située sur un cours d'eau;;1900-01-01;;2011-01-20;Non renseigné;CHEMIN ENTRE LE LIEU-DIT LA BEDUAUDIERE ET LA D250;;;;996460;;;
04633000;RAU DE LA MORINIERE À CHANGE;;419672.1;6786593;26;RGF93 / Lambert 93;53054;Changé;53;Mayenne;52;Pays de la Loire;GR1277;FRGR1277;LE MOYETTE ET SES AFFLUENTS DEPUIS LA SOURCE JUSQU'A LA CONFLUENCE AVEC LA MAYENNE;FRG_MSL;Mayenne - Sarthe - Loir;G;FRG;La Loire, les cours d'eau côtiers vendéens et bretons;M3334100;M3334100;le Moyette;2;Station qualité située sur un cours d'eau;;1900-01-01;;2010-12-17;Non renseigné;_;;;;999831;;;
04636004;CHARDONNIERE À CHATEAU-GONTIER;;422164;6756390;26;RGF93 / Lambert 93;53062;Château-Gontier-sur-Mayenne;53;Mayenne;52;Pays de la Loire;GR1167;FRGR1167;LA CHARDONNIERE ET SES AFFLUENTS DEPUIS LA SOURCE JUSQU'A LA CONFLUENCE AVEC LA MAYENNE;FRG_MSL;Mayenne - Sarthe - Loir;G;FRG;La Loire, les cours d'eau côtiers vendéens et bretons;M3604800;M3604800;la Chardonnière;2;Station qualité située sur un cours d'eau;;1900-01-01;;2011-10-06;Non renseigné;PASSERELLE EN AVAL DU PONT DE LA D112;;;;998847;;;
04632033;LA JEUSSELINIERE A CHAMPGENETEUX;;450708;6805991;26;RGF93 / Lambert 93;53053;Champgenéteux;53;Mayenne;52;Pays de la Loire;GR0513;FRGR0513;L'ARON ET SES AFFLUENTS DEPUIS LA SOURCE JUSQU'A LA CONFLUENCE AVEC LA MAYENNE;FRG_MSL;Mayenne - Sarthe - Loir;G;FRG;La Loire, les cours d'eau côtiers vendéens et bretons;M3247500;M3247500;;2;Station qualité située sur un cours d'eau;;1900-01-01;;2016-04-11;Evaluation;LIEU DIT LA JEUSSELINIERE;;;;996756;;;
04120000;ERVE à BALLEE;;444858.51;6764830.39;26;RGF93 / Lambert 93;53017;Val-du-Maine;53;Mayenne;52;Pays de la Loire;GR0486;FRGR0486;L'ERVE ET SES AFFLUENTS DEPUIS LA SOURCE JUSQU'A LA CONFLUENCE AVEC LE TREULON;FRG_MSL;Mayenne - Sarthe - Loir;G;FRG;La Loire, les cours d'eau côtiers vendéens et bretons;M0610300;M06-0300;l'Erve;2;Station qualité située sur un cours d'eau;ERVE;1900-01-01;;2001-02-28;Evaluation;MOULIN DE BALLEE;;;;978366;;;
04606015;VARENNE A AMBRIERES LES VALLEES;;431556;6817641;26;RGF93 / Lambert 93;53003;Ambrières-les-Vallées;53;Mayenne;52;Pays de la Loire;GR0510;FRGR0510;LA VARENNE DEPUIS LA CONFLUENCE DE L'EGRENNE JUSQU'A LA RETENUE DE SAINT FRAIMBAULT;FRG_MSL;Mayenne - Sarthe - Loir;G;FRG;La Loire, les cours d'eau côtiers vendéens et bretons;M3140300;M31-0300;la Varenne;2;Station qualité située sur un cours d'eau;facilité de prélèvement au niveau du seuil en RG\n\n;1900-01-01;;2019-01-16;Evaluation;SEUIL PONT DE LA RD23;;;;997521;;;
04632032;LA CHASSEGUERRE A HARDANGES;;449095;6807651;26;RGF93 / Lambert 93;53114;Hardanges;53;Mayenne;52;Pays de la Loire;GR0513;FRGR0513;L'ARON ET SES AFFLUENTS DEPUIS LA SOURCE JUSQU'A LA CONFLUENCE AVEC LA MAYENNE;FRG_MSL;Mayenne - Sarthe - Loir;G;FRG;La Loire, les cours d'eau côtiers vendéens et bretons;M3246900;M3246900;le Moulin;2;Station qualité située sur un cours d'eau;;1900-01-01;;2016-04-11;Evaluation;LIEU DIT LA CHASSEGUERRE;;;;995594.288;;;
04632038;LE COLMONT A GORRON;;417534;6819875;26;RGF93 / Lambert 93;53107;Gorron;53;Mayenne;52;Pays de la Loire;GR0512;FRGR0512;LA COLMONT DEPUIS HEUSSE JUSQU'A LA RETENUE DE SAINT FRAIMBAULT;FRG_MSL;Mayenne - Sarthe - Loir;G;FRG;La Loire, les cours d'eau côtiers vendéens et bretons;M3210300;M32-0300;la Colmont;2;Station qualité située sur un cours d'eau;;1900-01-01;;2016-07-01;Evaluation;STATION D'EAU POTABLE;;;;976251.308;;;
04633015;ERMITAGE A LARCHAMP;;407798.8;6811990;26;RGF93 / Lambert 93;53126;Larchamp;53;Mayenne;52;Pays de la Loire;GR0514;FRGR0514;L'ERNEE DEPUIS SAINT-DENIS-DE-GASTINES JUSQU'A LA CONFLUENCE AVEC LA MAYENNE;FRG_MSL;Mayenne - Sarthe - Loir;G;FRG;La Loire, les cours d'eau côtiers vendéens et bretons;M3300300;M33-0300;l'Ernée;2;Station qualité située sur un cours d'eau;Exutoire sous bassin versant de l'Ermitage \n\n;1900-01-01;;2016-07-11;Evaluation;LIEUX DIT "LE MOULIN DE CHEVAILLE";;;;948865;;;
04122300;TAUDE à SAINT-BRICE;;443465.1;6755828;26;RGF93 / Lambert 93;53203;Saint-Brice;53;Mayenne;52;Pays de la Loire;GR0490;FRGR0490;LA TAUDE ET SES AFFLUENTS DEPUIS LA SOURCE JUSQU'A LA CONFLUENCE AVEC LA SARTHE;FRG_MSL;Mayenne - Sarthe - Loir;G;FRG;La Loire, les cours d'eau côtiers vendéens et bretons;M0674000;M0674000;la Taude;2;Station qualité située sur un cours d'eau;TAUDE;1900-01-01;;2010-04-22;Non renseigné;PONT DE LAUNAY;;;;991764;;;
04123250;MAYENNE à SAINT-CALAIS-DU-DESERT;;458522.7;6826087;26;RGF93 / Lambert 93;53204;Saint-Calais-du-Désert;53;Mayenne;52;Pays de la Loire;GR0458;FRGR0458;LA MAYENNE ET SES AFFLUENTS DEPUIS LA SOURCE JUSQU'A LA CONFLUENCE AVEC L'AISNE;FRG_MSL;Mayenne - Sarthe - Loir;G;FRG;La Loire, les cours d'eau côtiers vendéens et bretons;M3000090;M---0090;la Mayenne;2;Station qualité située sur un cours d'eau;;1900-01-01;;2013-10-16;Non renseigné;PONT D244;;;;813063;;;
04636001;RAU BERON À CHATELAIN;;430505;6749089;26;RGF93 / Lambert 93;53063;Châtelain;53;Mayenne;52;Pays de la Loire;GR1136;FRGR1136;LE BERON ET SES AFFLUENTS DEPUIS LA SOURCE JUSQU'A LA CONFLUENCE AVEC LA MAYENNE;FRG_MSL;Mayenne - Sarthe - Loir;G;FRG;La Loire, les cours d'eau côtiers vendéens et bretons;M3615300;M3615300;le Béron;2;Station qualité située sur un cours d'eau;;1900-01-01;;2010-12-17;Non renseigné;LIEU-DIT LE PONT MARCHAND;;;;990732;;;
04635006;RAU D'OLIVEAU À SAINT-SULPICE;;422844.3;6761618;26;RGF93 / Lambert 93;53136;La Roche-Neuville;53;Mayenne;52;Pays de la Loire;GR1174;FRGR1174;L'OLIVEAU ET SES AFFLUENTS DEPUIS LA SOURCE JUSQU'A LA CONFLUENCE AVEC LA MAYENNE;FRG_MSL;Mayenne - Sarthe - Loir;G;FRG;La Loire, les cours d'eau côtiers vendéens et bretons;M3525800;M3525800;l'Oliveau;2;Station qualité située sur un cours d'eau;;1900-01-01;;2011-10-06;Non renseigné;PONT ENTRE LES LIEUX-DITS LE RENNEBOURG ET LA FOUQUETIERE;;;;998639;;;
04635000;RAU DE BRAULT À HOUSSAY;;420518;6765230;26;RGF93 / Lambert 93;53117;Houssay;53;Mayenne;52;Pays de la Loire;GR1199;FRGR1199;LE BRAULT ET SES AFFLUENTS DEPUIS LA SOURCE JUSQU'A LA CONFLUENCE AVEC LA MAYENNE;FRG_MSL;Mayenne - Sarthe - Loir;G;FRG;La Loire, les cours d'eau côtiers vendéens et bretons;M3524300;M3524300;le Brault;2;Station qualité située sur un cours d'eau;;1900-01-01;;2010-12-17;Non renseigné;_;;;;998213;;;
04606000;R ERVE A SAINTE-SUZANNE;;451196.8;6783286;26;RGF93 / Lambert 93;53255;Sainte-Suzanne-et-Chammes;53;Mayenne;52;Pays de la Loire;GR0486;FRGR0486;L'ERVE ET SES AFFLUENTS DEPUIS LA SOURCE JUSQU'A LA CONFLUENCE AVEC LE TREULON;FRG_MSL;Mayenne - Sarthe - Loir;G;FRG;La Loire, les cours d'eau côtiers vendéens et bretons;M0610300;M06-0300;l'Erve;2;Station qualité située sur un cours d'eau;TURBIDITE TOUJOURS ASSEZ IMPORTANTE EN RAISON DE CARRIERES SITUEES PLUS EN AMONT. MARNAGE JOURNALIER DIRECTEMENT LIE A LA STATION DE POMPAGE SITUEE EN AMONT.\n;1900-01-01;;2012-02-17;Inconnue;PONT D9;;;;948805;;;
04630013;MAYENNE A MADRE;;452121.7;6825668;26;RGF93 / Lambert 93;53142;Madré;53;Mayenne;52;Pays de la Loire;GR0459;FRGR0459;LA MAYENNE DEPUIS LA CONFLUENCE DE L'AISNE JUSQU'A LA RETENUE DE SAINT-FRAIMBAULT-DE-PRIERES;FRG_MSL;Mayenne - Sarthe - Loir;G;FRG;La Loire, les cours d'eau côtiers vendéens et bretons;M3020090;M---0090;la Mayenne;2;Station qualité située sur un cours d'eau;Point de contrôle du sous bassin versant de l'Aisne\n\n;1900-01-01;;2017-11-15;Bilan;LA MAYENNE APRES LA CONFLUENCE AVEC L'AISNE;;;;822149.213;;;
04123980;COLMONT à LA HAIE-TRAVERSAINE;;431851.05;6814697.18;26;RGF93 / Lambert 93;53111;La Haie-Traversaine;53;Mayenne;52;Pays de la Loire;GR0512;FRGR0512;LA COLMONT DEPUIS HEUSSE JUSQU'A LA RETENUE DE SAINT FRAIMBAULT;FRG_MSL;Mayenne - Sarthe - Loir;G;FRG;La Loire, les cours d'eau côtiers vendéens et bretons;M3220300;M32-0300;la Colmont;2;Station qualité située sur un cours d'eau;COLMONT;1900-01-01;;2013-02-18;Non renseigné;LES HAIES (A L'AMONT DES CARRIERES);;;;997276;;;
04126800;JOUANNE à BREE;;437429.15;6788548.03;26;RGF93 / Lambert 93;53043;Brée;53;Mayenne;52;Pays de la Loire;GR0515;FRGR0515;LA JOUANNE ET SES AFFLUENTS DE LA SOURCE JUSQU'A LA CONFLUENCE AVEC LE RUISSEAU DES DEUX EVAILLES;FRG_MSL;Mayenne - Sarthe - Loir;G;FRG;La Loire, les cours d'eau côtiers vendéens et bretons;M3400300;M34-0300;la Jouanne;2;Station qualité située sur un cours d'eau;JOUANNE;1900-01-01;;2001-02-28;Non renseigné;PONT EN FACE DE L'USINE ROSSIGNOL;;;;962018;;;
04123800;VARENNE À SOUCE;;429756.2;6825299;26;RGF93 / Lambert 93;53261;Soucé;53;Mayenne;52;Pays de la Loire;GR0510;FRGR0510;LA VARENNE DEPUIS LA CONFLUENCE DE L'EGRENNE JUSQU'A LA RETENUE DE SAINT FRAIMBAULT;FRG_MSL;Mayenne - Sarthe - Loir;G;FRG;La Loire, les cours d'eau côtiers vendéens et bretons;M3140300;M31-0300;la Varenne;2;Station qualité située sur un cours d'eau;déplacée depuis 1992 ex Ambrières - LD Moulin de Champ (XY 379784-2385372);1900-01-01;;2010-03-03;Non renseigné;LD MOULIN D'AMBLOUX;;;;988098;;;
04607001;RAU DE BARAIZE À SAINT-DENIS-D'ANJOU;;441555;6746734;26;RGF93 / Lambert 93;53210;Saint-Denis-d'Anjou;53;Mayenne;52;Pays de la Loire;GR1131;FRGR1131;LE BARAIZE ET SES AFFLUENTS DEPUIS LA SOURCE JUSQU'A LA CONFLUENCE AVEC LA SARTHE;FRG_MSL;Mayenne - Sarthe - Loir;G;FRG;La Loire, les cours d'eau côtiers vendéens et bretons;M0704600;M0704600;le Baraize;2;Station qualité située sur un cours d'eau;;1900-01-01;;2010-12-17;Non renseigné;_;;;;996164;;;
04113050;VAUDELLE à SAINT-GERMAIN-DE-COULAMER;;462434.2;6801812;26;RGF93 / Lambert 93;53223;Saint-Germain-de-Coulamer;53;Mayenne;52;Pays de la Loire;GR0467;FRGR0467;LA VAUDELLE ET SES AFFLUENTS DEPUIS LA SOURCE JUSQU'A LA CONFLUENCE AVEC LA SARTHE;FRG_MSL;Mayenne - Sarthe - Loir;G;FRG;La Loire, les cours d'eau côtiers vendéens et bretons;M0124000;M0124000;la Vaudelle;2;Station qualité située sur un cours d'eau;VAUDELLE;1900-01-01;;2015-11-05;Non renseigné;ROUX-FRANCOIS;;;;985937;;;
04113100;VAUDELLE à SAINT-MARS-DU-DESERT;;466950;6803951;26;RGF93 / Lambert 93;53236;Saint-Mars-du-Désert;53;Mayenne;52;Pays de la Loire;GR0467;FRGR0467;LA VAUDELLE ET SES AFFLUENTS DEPUIS LA SOURCE JUSQU'A LA CONFLUENCE AVEC LA SARTHE;FRG_MSL;Mayenne - Sarthe - Loir;G;FRG;La Loire, les cours d'eau côtiers vendéens et bretons;M0124000;M0124000;la Vaudelle;2;Station qualité située sur un cours d'eau;;1900-01-01;;2013-02-18;Non renseignée;LIEU-DIT LA LOUVELLIERE EN AVAL DU PONT;;;;992244;;;
04128050;OUETTE à ENTRAMMES;;423446.3;6769883;26;RGF93 / Lambert 93;53094;Entrammes;53;Mayenne;52;Pays de la Loire;GR0518;FRGR0518;L'OUETTE ET SES AFFLUENTS DEPUIS LA SOURCE JUSQU'A LA CONFLUENCE AVEC LA MAYENNE;FRG_MSL;Mayenne - Sarthe - Loir;G;FRG;La Loire, les cours d'eau côtiers vendéens et bretons;M3514000;M3514000;l'Ouette;2;Station qualité située sur un cours d'eau;OUETTE;1900-01-01;;2010-03-03;Non renseigné;PONT D'OUETTE;;;;998782;;;
04121400;VAIGE À BOUESSAY;;447340.22;6757370.07;26;RGF93 / Lambert 93;53037;Bouessay;53;Mayenne;52;Pays de la Loire;GR0488;FRGR0488;LA VAIGE ET SES AFFLUENTS DEPUIS LA SOURCE JUSQU'A LA CONFLUENCE AVEC LA SARTHE;FRG_MSL;Mayenne - Sarthe - Loir;G;FRG;La Loire, les cours d'eau côtiers vendéens et bretons;M0650310;M06-0310;la Vaige;2;Station qualité située sur un cours d'eau;VAIGE;1900-01-01;;2013-02-18;Non renseigné;PONT DE LA ROUTE DE SABLE;;;;991803;;;
04635007;R VICOIN A LE GENEST-SAINT-ISLE;;411881.3;6784380;26;RGF93 / Lambert 93;53103;Le Genest-Saint-Isle;53;Mayenne;52;Pays de la Loire;GR0517;FRGR0517;LE VICOIN ET SES AFFLUENTS DEPUIS LA SOURCE JUSQU'A LA CONFLUENCE AVEC LA MAYENNE;FRG_MSL;Mayenne - Sarthe - Loir;G;FRG;La Loire, les cours d'eau côtiers vendéens et bretons;M3504000;M3504000;le Vicoin;2;Station qualité située sur un cours d'eau;en amont d'un barrage démantelé en 2010;1900-01-01;;2012-02-29;Evaluation;PAICHAUD A LE GENEST-SAINT-ISLE AMONT DE LA PASSERELLE TOUTE CHARGE;;;;975996;;;
04125500;ERNEE à LARCHAMP;;407491.2;6810462;26;RGF93 / Lambert 93;53126;Larchamp;53;Mayenne;52;Pays de la Loire;GR0514;FRGR0514;L'ERNEE DEPUIS SAINT-DENIS-DE-GASTINES JUSQU'A LA CONFLUENCE AVEC LA MAYENNE;FRG_MSL;Mayenne - Sarthe - Loir;G;FRG;La Loire, les cours d'eau côtiers vendéens et bretons;M3300300;M33-0300;l'Ernée;2;Station qualité située sur un cours d'eau;ERNÉE;1900-01-01;;2011-01-10;Non renseignée;LE PETIT VAL;;;;949238;;;
04125890;ERNEE à ANDOUILLE;;419309.46;6791934.76;26;RGF93 / Lambert 93;53005;Andouillé;53;Mayenne;52;Pays de la Loire;GR0514;FRGR0514;L'ERNEE DEPUIS SAINT-DENIS-DE-GASTINES JUSQU'A LA CONFLUENCE AVEC LA MAYENNE;FRG_MSL;Mayenne - Sarthe - Loir;G;FRG;La Loire, les cours d'eau côtiers vendéens et bretons;M3320300;M33-0300;l'Ernée;2;Station qualité située sur un cours d'eau;;1900-01-01;;2007-07-23;Non renseignée;LES VAUGEOIS;;;;988231;;;
04606018;AMBRIERS A  TORCE-VIVIERS-EN-CHARNIE;;453984;6783947;26;RGF93 / Lambert 93;53265;Torcé-Viviers-en-Charnie;53;Mayenne;52;Pays de la Loire;GR0486;FRGR0486;L'ERVE ET SES AFFLUENTS DEPUIS LA SOURCE JUSQU'A LA CONFLUENCE AVEC LE TREULON;FRG_MSL;Mayenne - Sarthe - Loir;G;FRG;La Loire, les cours d'eau côtiers vendéens et bretons;M0615200;M0615200;;2;Station qualité située sur un cours d'eau;SUIVI INDICATEURS BIOLOGIQUES\n\n;1900-01-01;;2019-01-17;Bilan;AVAL PONT;;;;997660.313;;;
04126295;QUARTIER à LOUVERNE;;423802.5;6784798;26;RGF93 / Lambert 93;53140;Louverné;53;Mayenne;52;Pays de la Loire;GR1286;FRGR1286;LE QUARTIER ET SES AFFLUENTS DEPUIS LA SOURCE JUSQU'A LA CONFLUENCE AVEC LA MAYENNE;FRG_MSL;Mayenne - Sarthe - Loir;G;FRG;La Loire, les cours d'eau côtiers vendéens et bretons;M3344000;M3344000;le Quartier;2;Station qualité située sur un cours d'eau;PRELEVEMENT EN AVAL DE L'ARRIVEE DE LA BUSE\n\n;1900-01-01;;2013-10-18;Non renseigné;A HAUTEUR DE L'ANCIEN FOUR A CHAUX;;;;990833.144;;;
04635012;RAU DU COUDRAY A BOURGNEUF-LA-FORET;;404414;6791827;26;RGF93 / Lambert 93;53039;Le Bourgneuf-la-Forêt;53;Mayenne;52;Pays de la Loire;GR0517;FRGR0517;LE VICOIN ET SES AFFLUENTS DEPUIS LA SOURCE JUSQU'A LA CONFLUENCE AVEC LA MAYENNE;FRG_MSL;Mayenne - Sarthe - Loir;G;FRG;La Loire, les cours d'eau côtiers vendéens et bretons;M3504900;M3504900;;2;Station qualité située sur un cours d'eau;;1900-01-01;;2016-01-11;Bilan;20 M EN AMONT DE LA ROUTE DE CORNESSE;;;;995209.153;;;
04634001;DEUX EVAILLES A DEUX-EVAILLES;;437933.3;6793591;26;RGF93 / Lambert 93;53161;Montsûrs;53;Mayenne;52;Pays de la Loire;GR0515;FRGR0515;LA JOUANNE ET SES AFFLUENTS DE LA SOURCE JUSQU'A LA CONFLUENCE AVEC LE RUISSEAU DES DEUX EVAILLES;FRG_MSL;Mayenne - Sarthe - Loir;G;FRG;La Loire, les cours d'eau côtiers vendéens et bretons;M3414000;M3414000;la Deux Evailles;2;Station qualité située sur un cours d'eau;;1900-01-01;;2010-06-03;Inconnue;A 500 M DE LA CONFLUENCE AVEC LE PETIT BERNARD;;;;991835;;;
M325520;ETANG DE BEAUCOUDRAY à ARON;;437966.03;6804755.3;26;RGF93 / Lambert 93;53008;Aron;53;Mayenne;52;Pays de la Loire;GL116;FRGL116;ETANG DE BEAUCOUDRAY;FRG_MSL;Mayenne - Sarthe - Loir;G;FRG;La Loire, les cours d'eau côtiers vendéens et bretons;M3250311;M32-0311;;1;Station qualité située sur un plan d'eau;Coordonnées du centroïde du plan d'eau;1900-01-01;;2008-10-01;Non renseignée;ETANG DE BEAUCOUDRAY A ARON;;;;997054;;;
M374510T;ETANG DE LA RINCERIE à LA SELLE-CRAONNAISE;;396772.11;6759540.74;26;RGF93 / Lambert 93;53258;La Selle-Craonnaise;53;Mayenne;52;Pays de la Loire;GL168;FRGL168;ETANG DE LA RINCERIE;FRG_MSL;Mayenne - Sarthe - Loir;G;FRG;La Loire, les cours d'eau côtiers vendéens et bretons;M3744000;M3744000;l'Usure;1;Station qualité située sur un plan d'eau;Coordonnées du point le plus profond (points de prélèvement eau et sédiment);1900-01-01;;2008-10-01;Non renseignée;ETANG DE LA RINCERIE A LA SELLE-CRAONNAISE;;;;986879;;;
04632016;RAU FRESNE A LOUVERNE;;423043.5;6789688;26;RGF93 / Lambert 93;53140;Louverné;53;Mayenne;52;Pays de la Loire;GR1292;FRGR1292;LE FRESNE ET SES AFFLUENTS DEPUIS LA SOURCE JUSQU'A LA CONFLUENCE AVEC LA MAYENNE;FRG_MSL;Mayenne - Sarthe - Loir;G;FRG;La Loire, les cours d'eau côtiers vendéens et bretons;M3278000;M3278000;le Fresne;2;Station qualité située sur un cours d'eau;;1900-01-01;;2012-04-25;Non renseigné;AMONT DU LIEU-DIT LE RUISSEAU A 20M EN AVAL DU PONT;;;;997631;;;
04632037;LE COLMONT A SAINT-AUBIN-FOSSE-LOUVAIN;;418540;6822508;26;RGF93 / Lambert 93;53199;Saint-Aubin-Fosse-Louvain;53;Mayenne;52;Pays de la Loire;GR0512;FRGR0512;LA COLMONT DEPUIS HEUSSE JUSQU'A LA RETENUE DE SAINT FRAIMBAULT;FRG_MSL;Mayenne - Sarthe - Loir;G;FRG;La Loire, les cours d'eau côtiers vendéens et bretons;M3210300;M32-0300;la Colmont;2;Station qualité située sur un cours d'eau;;1900-01-01;;2016-07-01;Evaluation;PONT LESBOIS;;;;971976.722;;;
04123750;MAYENNE à AMBRIERES-LES-VALLEES;;434894.4;6822140;26;RGF93 / Lambert 93;53003;Ambrières-les-Vallées;53;Mayenne;52;Pays de la Loire;GR0459;FRGR0459;LA MAYENNE DEPUIS LA CONFLUENCE DE L'AISNE JUSQU'A LA RETENUE DE SAINT-FRAIMBAULT-DE-PRIERES;FRG_MSL;Mayenne - Sarthe - Loir;G;FRG;La Loire, les cours d'eau côtiers vendéens et bretons;M3060090;M---0090;la Mayenne;2;Station qualité située sur un cours d'eau;MAYENNE;1900-01-01;;2010-03-03;Non renseigné;PONT D214 - LD CHATEAU DE TORCE;;;;855223;;;
04127550;VICOIN à GENEST-SAINT-ISLE (LE);;408183.24;6784271.36;26;RGF93 / Lambert 93;53103;Le Genest-Saint-Isle;53;Mayenne;52;Pays de la Loire;GR0517;FRGR0517;LE VICOIN ET SES AFFLUENTS DEPUIS LA SOURCE JUSQU'A LA CONFLUENCE AVEC LA MAYENNE;FRG_MSL;Mayenne - Sarthe - Loir;G;FRG;La Loire, les cours d'eau côtiers vendéens et bretons;M3504000;M3504000;le Vicoin;2;Station qualité située sur un cours d'eau;;1900-01-01;;2013-02-18;Non renseignée;GUILDINE;;;;971611;;;
04130500;OUDON à COSSE-LE-VIVIEN;;406822.1;6766650;26;RGF93 / Lambert 93;53077;Cossé-le-Vivien;53;Mayenne;52;Pays de la Loire;GR0504;FRGR0504;L'OUDON ET SES AFFLUENTS DEPUIS LA SOURCE JUSQU'A CRAON;FRG_MSL;Mayenne - Sarthe - Loir;G;FRG;La Loire, les cours d'eau côtiers vendéens et bretons;M3710180;M3--0180;l'Oudon;2;Station qualité située sur un cours d'eau;OUDON;1900-01-01;;2011-02-03;Non renseigné;MELLERAY PONT DE LA D153;;;;924122;;;
04633003;RAU DE FOIREUX À ANDOUILLE;;414591.6;6792600;26;RGF93 / Lambert 93;53005;Andouillé;53;Mayenne;52;Pays de la Loire;GR1289;FRGR1289;LE FOIREUX ET SES AFFLUENTS DEPUIS LA SOURCE JUSQU'A LA CONFLUENCE AVEC L'ERNEE;FRG_MSL;Mayenne - Sarthe - Loir;G;FRG;La Loire, les cours d'eau côtiers vendéens et bretons;M3328400;M3328400;le Foireux;2;Station qualité située sur un cours d'eau;Prélèvement 20 m en aval du pont;1900-01-01;;2011-10-06;Non renseigné;LIEU-DIT LES SELLES;;;;997176;;;
04636007;RAU DU PONT PERDREAU A AZE;;427129.4;6756712;26;RGF93 / Lambert 93;53062;Château-Gontier-sur-Mayenne;53;Mayenne;52;Pays de la Loire;GR1163;FRGR1163;LE PONT PERDREAU ET SES AFFLUENTS DEPUIS LA SOURCE JUSQU'A LA CONFLUENCE AVEC LA MAYENNE;FRG_MSL;Mayenne - Sarthe - Loir;G;FRG;La Loire, les cours d'eau côtiers vendéens et bretons;M3604000;M3604000;le Pont Perdreau;2;Station qualité située sur un cours d'eau;;1900-01-01;;2012-07-30;Inconnue;LD ECLEVON;;;;993997;;;
04630014;MAYENNE A NEUILLY LE VENDIN;;452350.8;6825806;26;RGF93 / Lambert 93;53164;Neuilly-le-Vendin;53;Mayenne;52;Pays de la Loire;GR0458;FRGR0458;LA MAYENNE ET SES AFFLUENTS DEPUIS LA SOURCE JUSQU'A LA CONFLUENCE AVEC L'AISNE;FRG_MSL;Mayenne - Sarthe - Loir;G;FRG;La Loire, les cours d'eau côtiers vendéens et bretons;M3000090;M---0090;la Mayenne;2;Station qualité située sur un cours d'eau;Point de contrôle du sous bassin versant de la mayenne amont\n\n;1900-01-01;;2017-11-10;Bilan;LA MAYENNE AVANT LA CONFLUENCE AVEC L'AISNE;;;;819679.89;;;
04606013;ERVE A VOUTRE;;453150.5;6787432;26;RGF93 / Lambert 93;53276;Voutré;53;Mayenne;52;Pays de la Loire;GR0486;FRGR0486;L'ERVE ET SES AFFLUENTS DEPUIS LA SOURCE JUSQU'A LA CONFLUENCE AVEC LE TREULON;FRG_MSL;Mayenne - Sarthe - Loir;G;FRG;La Loire, les cours d'eau côtiers vendéens et bretons;M0610300;M06-0300;l'Erve;2;Station qualité située sur un cours d'eau;prise d'eau potable de Gratte Sac\n\n;1900-01-01;;2018-01-11;Evaluation;USINE DES EAUX;;;;943873.846;;;
04125600;ERNEE à ERNEE;;408063.26;6808569.95;26;RGF93 / Lambert 93;53096;Ernée;53;Mayenne;52;Pays de la Loire;GR0514;FRGR0514;L'ERNEE DEPUIS SAINT-DENIS-DE-GASTINES JUSQU'A LA CONFLUENCE AVEC LA MAYENNE;FRG_MSL;Mayenne - Sarthe - Loir;G;FRG;La Loire, les cours d'eau côtiers vendéens et bretons;M3300300;M33-0300;l'Ernée;2;Station qualité située sur un cours d'eau;ERNÉE;1900-01-01;;2007-07-20;Non renseignée;USINE DES EAUX;;;;951881;;;
04131000;OUDON à CRAON;;404728.46;6754777.7;26;RGF93 / Lambert 93;53084;Craon;53;Mayenne;52;Pays de la Loire;GR0504;FRGR0504;L'OUDON ET SES AFFLUENTS DEPUIS LA SOURCE JUSQU'A CRAON;FRG_MSL;Mayenne - Sarthe - Loir;G;FRG;La Loire, les cours d'eau côtiers vendéens et bretons;M3730180;M3--0180;l'Oudon;2;Station qualité située sur un cours d'eau;OUDON;1900-01-01;;2001-02-28;Non renseignée;LD MOULIN DE CHOUAIGNES - AVAL DU PONT SNCF;;;;949130;;;
04635002;R VICOIN À NUILLE-SUR-VICOIN;;418911.1;6772774;26;RGF93 / Lambert 93;53168;Nuillé-sur-Vicoin;53;Mayenne;52;Pays de la Loire;GR0517;FRGR0517;LE VICOIN ET SES AFFLUENTS DEPUIS LA SOURCE JUSQU'A LA CONFLUENCE AVEC LA MAYENNE;FRG_MSL;Mayenne - Sarthe - Loir;G;FRG;La Loire, les cours d'eau côtiers vendéens et bretons;M3504000;M3504000;le Vicoin;2;Station qualité située sur un cours d'eau;;1900-01-01;;2014-02-07;Inconnue;LD LE MOULIN DE LA ROCHE-AMONT DU RAU DE LA BARRERIE ET DE LA PASSERELLE;;;;994658;;;
04632020;R COLMONT A DESERTINES;;414593;6829139;26;RGF93 / Lambert 93;53091;Désertines;53;Mayenne;52;Pays de la Loire;GR0512;FRGR0512;LA COLMONT DEPUIS HEUSSE JUSQU'A LA RETENUE DE SAINT FRAIMBAULT;FRG_MSL;Mayenne - Sarthe - Loir;G;FRG;La Loire, les cours d'eau côtiers vendéens et bretons;M3200300;M32-0300;la Colmont;2;Station qualité située sur un cours d'eau;IMPACT DU PIETINEMENT DES BERGES ET DU LIT;1900-01-01;;2012-06-18;Evaluation;EN AMONT DU PONT DE LA D32;;;;958811;;;
04635001;RAU DU PONT MANCEAU À FROMENTIERES;;425887.5;6758018;26;RGF93 / Lambert 93;53101;Fromentières;53;Mayenne;52;Pays de la Loire;GR1184;FRGR1184;LE PONT MANCEAU ET SES AFFLUENTS DEPUIS LA SOURCE JUSQU'A LA CONFLUENCE AVEC LA MAYENNE;FRG_MSL;Mayenne - Sarthe - Loir;G;FRG;La Loire, les cours d'eau côtiers vendéens et bretons;M3526700;M3526700;le Pont Manceau;2;Station qualité située sur un cours d'eau;;1900-01-01;;2017-02-02;Non renseigné;PONT AU LIEU-DIT LA GROTTIERE;;;;997041;;;
04636006;RAU SOUVERON A AZE;;426631.6;6752611;26;RGF93 / Lambert 93;53062;Château-Gontier-sur-Mayenne;53;Mayenne;52;Pays de la Loire;GR1147;FRGR1147;LE SOUVERON ET SES AFFLUENTS DEPUIS LA SOURCE JUSQU'A LA CONFLUENCE AVEC LA MAYENNE;FRG_MSL;Mayenne - Sarthe - Loir;G;FRG;La Loire, les cours d'eau côtiers vendéens et bretons;M3606000;M3606000;le Souvéron;2;Station qualité située sur un cours d'eau;;1900-01-01;;2012-02-03;Non renseigné;PONT D105 LIEU-DIT DORDOGNE;;;;997456;;;
04123300;AISNE à NEUILLY-LE-VENDIN;;452980.9;6824362;26;RGF93 / Lambert 93;53164;Neuilly-le-Vendin;53;Mayenne;52;Pays de la Loire;GR0506;FRGR0506;L'AISNE ET SES AFFLUENTS DEPUIS LA SOURCE JUSQU'A LA CONFLUENCE AVEC LA MAYENNE;FRG_MSL;Mayenne - Sarthe - Loir;G;FRG;La Loire, les cours d'eau côtiers vendéens et bretons;M3014001;M3014001;;2;Station qualité située sur un cours d'eau;;1900-01-01;;2014-10-16;Non renseigné;PONT D214 - CHÂTEAU DE LA MOTTE - PRELEVEMENT SUR LE BRAS EST;;;;999424.009;;;
04127970;VICOIN à NUILLE-SUR-VICOIN;;419131.4;6772752;26;RGF93 / Lambert 93;53168;Nuillé-sur-Vicoin;53;Mayenne;52;Pays de la Loire;GR0517;FRGR0517;LE VICOIN ET SES AFFLUENTS DEPUIS LA SOURCE JUSQU'A LA CONFLUENCE AVEC LA MAYENNE;FRG_MSL;Mayenne - Sarthe - Loir;G;FRG;La Loire, les cours d'eau côtiers vendéens et bretons;M3504000;M3504000;le Vicoin;2;Station qualité située sur un cours d'eau;VICOIN\n;1900-01-01;;2014-02-07;Non renseigné;PONT DE LA D103 AU MOULIN DE LA ROCHE;;;;994889;;;
04636008;MOULINET À CHÂTEAU-GONTIER;;421400;6754028;26;RGF93 / Lambert 93;53062;Château-Gontier-sur-Mayenne;53;Mayenne;52;Pays de la Loire;GR1152;FRGR1152;LE MOULINET ET SES AFFLUENTS DEPUIS LA SOURCE JUSQU'A LA CONFLUENCE AVEC LA MAYENNE;FRG_MSL;Mayenne - Sarthe - Loir;G;FRG;La Loire, les cours d'eau côtiers vendéens et bretons;M3605200;M3605200;le Moulinet;2;Station qualité située sur un cours d'eau;;1900-01-01;;2012-07-11;Non renseigné;LE GRAND BOURGNAULT;;;;997799;;;
04125800;ERNEE à ANDOUILLE;;418530.41;6792761.35;26;RGF93 / Lambert 93;53005;Andouillé;53;Mayenne;52;Pays de la Loire;GR0514;FRGR0514;L'ERNEE DEPUIS SAINT-DENIS-DE-GASTINES JUSQU'A LA CONFLUENCE AVEC LA MAYENNE;FRG_MSL;Mayenne - Sarthe - Loir;G;FRG;La Loire, les cours d'eau côtiers vendéens et bretons;M3320300;M33-0300;l'Ernée;2;Station qualité située sur un cours d'eau;;1900-01-01;;2007-07-23;Non renseigné;LD LE  PONT (PONT BRAS PRINCIPAL);;;;986851;;;
04632027;LA MAYENNE À SAINT FRAIMBAULT DE PRIERES;;434150;6813084;26;RGF93 / Lambert 93;53216;Saint-Fraimbault-de-Prières;53;Mayenne;52;Pays de la Loire;GL117;FRGL117;RETENUE DE SAINT FRAIMBAULT;FRG_MSL;Mayenne - Sarthe - Loir;G;FRG;La Loire, les cours d'eau côtiers vendéens et bretons;;;;2;Station qualité située sur un cours d'eau;Ne pas snapper - Station qui permet d'améliorer la connaissance du fonctionnement du plan d'eau et d'évaluer l'efficacité du plan de gestion\n;1900-01-01;;2014-02-18;Evaluation;VANNE DE FOND - AVAL DU BARRAGE;;;;;;;
04113200;ORTHE à SAINT-PIERRE-SUR-ORTHE;;466152;6796827;26;RGF93 / Lambert 93;53249;Saint-Pierre-sur-Orthe;53;Mayenne;52;Pays de la Loire;GR0468;FRGR0468;L'ORTHE ET SES AFFLUENTS DEPUIS LA SOURCE JUSQU'A LA CONFLUENCE AVEC LA SARTHE;FRG_MSL;Mayenne - Sarthe - Loir;G;FRG;La Loire, les cours d'eau côtiers vendéens et bretons;M0134100;M0134100;l'Orthe;2;Station qualité située sur un cours d'eau;;1900-01-01;;2013-02-18;Non renseignée;LIEU-DIT LA PLANCHE EN AVAL DU PONT;;;;982273;;;
04632034;LA VRILLERE A LOUPFOUGERES;;449659;6806610;26;RGF93 / Lambert 93;53139;Loupfougères;53;Mayenne;52;Pays de la Loire;GR0513;FRGR0513;L'ARON ET SES AFFLUENTS DEPUIS LA SOURCE JUSQU'A LA CONFLUENCE AVEC LA MAYENNE;FRG_MSL;Mayenne - Sarthe - Loir;G;FRG;La Loire, les cours d'eau côtiers vendéens et bretons;M3247500;M3247500;;2;Station qualité située sur un cours d'eau;;1900-01-01;;2016-04-11;Evaluation;LIEU DIT LA MIOTTIERE;;;;999849.759;;;
04634000;DEUX EVAILLES A DEUX-EVAILLES;;437994.1;6794212;26;RGF93 / Lambert 93;53161;Montsûrs;53;Mayenne;52;Pays de la Loire;GR0515;FRGR0515;LA JOUANNE ET SES AFFLUENTS DE LA SOURCE JUSQU'A LA CONFLUENCE AVEC LE RUISSEAU DES DEUX EVAILLES;FRG_MSL;Mayenne - Sarthe - Loir;G;FRG;La Loire, les cours d'eau côtiers vendéens et bretons;M3414000;M3414000;la Deux Evailles;2;Station qualité située sur un cours d'eau;;1900-01-01;;2010-06-03;Inconnue;AMONT DU PONT DU BOURG DE DEUX EVAILLES SUR D519;;;;991025;;;
04127000;JOUANNE à FORCE;;423939.6;6776832;26;RGF93 / Lambert 93;53099;Forcé;53;Mayenne;52;Pays de la Loire;GR0516;FRGR0516;LA JOUANNE DEPUIS LA CONFLUENCE DU RUISSEAU DES DEUX EVAILLES JUSQU'A LA CONFLUENCE AVEC LA MAYENNE;FRG_MSL;Mayenne - Sarthe - Loir;G;FRG;La Loire, les cours d'eau côtiers vendéens et bretons;M3420300;M34-0300;la Jouanne;2;Station qualité située sur un cours d'eau;JOUANNE;1900-01-01;;2010-03-03;Non renseigné;PONT DE LA RD21;;;;991294;;;
04131200;HIERE à CHERANCE;;405726.7;6751010;26;RGF93 / Lambert 93;53068;Chérancé;53;Mayenne;52;Pays de la Loire;GR0520;FRGR0520;L'HIERE ET SES AFFLUENTS DEPUIS LA SOURCE JUSQU'A LA CONFLUENCE AVEC L'OUDON;FRG_MSL;Mayenne - Sarthe - Loir;G;FRG;La Loire, les cours d'eau côtiers vendéens et bretons;M3764000;M3764000;l'Hière;2;Station qualité située sur un cours d'eau;HIERE;1900-01-01;;2010-03-04;Non renseigné;LE MOULIN DU PONT;;;;998825;;;
04633013;ERNEE A ERNEE;;408086.4;6808655;26;RGF93 / Lambert 93;53096;Ernée;53;Mayenne;52;Pays de la Loire;GR0514;FRGR0514;L'ERNEE DEPUIS SAINT-DENIS-DE-GASTINES JUSQU'A LA CONFLUENCE AVEC LA MAYENNE;FRG_MSL;Mayenne - Sarthe - Loir;G;FRG;La Loire, les cours d'eau côtiers vendéens et bretons;M3300300;M33-0300;l'Ernée;2;Station qualité située sur un cours d'eau;"Amont d'un captage d'eau superficielle pour la production d'eau potable \n"\n\n;1900-01-01;;2016-07-11;Evaluation;USINE DES EAUX;;;;950795.929;;;
04632035;LA VRILLERE A CHAMPGENETEUX;;448472;6807227;26;RGF93 / Lambert 93;53053;Champgenéteux;53;Mayenne;52;Pays de la Loire;GR0513;FRGR0513;L'ARON ET SES AFFLUENTS DEPUIS LA SOURCE JUSQU'A LA CONFLUENCE AVEC LA MAYENNE;FRG_MSL;Mayenne - Sarthe - Loir;G;FRG;La Loire, les cours d'eau côtiers vendéens et bretons;M3246900;M3246900;le Moulin;2;Station qualité située sur un cours d'eau;;1900-01-01;;2016-04-11;Evaluation;LIEU DIT BONNE FONTAINE;;;;996362;;;
04606001;R ERVE A THORIGNE-EN-CHARNIE;;446469;6771456;26;RGF93 / Lambert 93;53264;Thorigné-en-Charnie;53;Mayenne;52;Pays de la Loire;GR0486;FRGR0486;L'ERVE ET SES AFFLUENTS DEPUIS LA SOURCE JUSQU'A LA CONFLUENCE AVEC LE TREULON;FRG_MSL;Mayenne - Sarthe - Loir;G;FRG;La Loire, les cours d'eau côtiers vendéens et bretons;M0610300;M06-0300;l'Erve;2;Station qualité située sur un cours d'eau;;1900-01-01;;2014-12-18;Non renseigné;PONT LD LA ROCHE BRAULT;;;;968385.062;;;
04635004;R VICOIN À LE GENEST-SAINT-ISLE;;410631.7;6784183;26;RGF93 / Lambert 93;53201;Saint-Berthevin;53;Mayenne;52;Pays de la Loire;GR0517;FRGR0517;LE VICOIN ET SES AFFLUENTS DEPUIS LA SOURCE JUSQU'A LA CONFLUENCE AVEC LA MAYENNE;FRG_MSL;Mayenne - Sarthe - Loir;G;FRG;La Loire, les cours d'eau côtiers vendéens et bretons;M3504000;M3504000;le Vicoin;2;Station qualité située sur un cours d'eau;;1900-01-01;;2012-02-14;Inconnue;LD LE PRES SEC-ACCES PAR LA D278;;;;974560;;;
04635005;R VICOIN À GENEST-SAINT-ISLE;;411139.2;6784270;26;RGF93 / Lambert 93;53103;Le Genest-Saint-Isle;53;Mayenne;52;Pays de la Loire;GR0517;FRGR0517;LE VICOIN ET SES AFFLUENTS DEPUIS LA SOURCE JUSQU'A LA CONFLUENCE AVEC LA MAYENNE;FRG_MSL;Mayenne - Sarthe - Loir;G;FRG;La Loire, les cours d'eau côtiers vendéens et bretons;M3504000;M3504000;le Vicoin;2;Station qualité située sur un cours d'eau;;1900-01-01;;2011-05-18;Inconnue;AMONT LD LES BUTTES-AMONT DU SEUIL ET DU REJET STEP;;;;975179;;;
04123275;AISNE à JAVRON-LES-CHAPELLES;;452939.58;6816831.51;26;RGF93 / Lambert 93;53121;Javron-les-Chapelles;53;Mayenne;52;Pays de la Loire;GR0506;FRGR0506;L'AISNE ET SES AFFLUENTS DEPUIS LA SOURCE JUSQU'A LA CONFLUENCE AVEC LA MAYENNE;FRG_MSL;Mayenne - Sarthe - Loir;G;FRG;La Loire, les cours d'eau côtiers vendéens et bretons;M3014000;M3014000;l'Aisne;2;Station qualité située sur un cours d'eau;;1900-01-01;;2010-06-08;Non renseignée;LIEU-DIT CAMPAIL;;;;987894;;;
03271730;LA GLAINE A PONTMAIN 2;;398367.47;6821729.41;26;RGF93 / Lambert 93;53181;Pontmain;53;Mayenne;52;Pays de la Loire;HR347-I9150600;FRHR347-I9150600;la glaine;FRH_CONO;Côtiers normands;H;FRH;La Seine et les cours d'eau côtiers normands;I9150600;I9150600;rivière la glaine;2;Station qualité située sur un cours d'eau;;2014-12-03;;2019-12-02;;LD La Gaucherie Malval, Pont Route Pontmain;;;;;;;
03271657;LE RUISSEAU DE LA MORINIÈRE A SAINT-BERTHEVIN-LA-TANNIERE 1;;406815;6819777;26;RGF93 / Lambert 93;53202;Saint-Berthevin-la-Tannière;53;Mayenne;52;Pays de la Loire;HR347-I9143000;FRHR347-I9143000;ruisseau de la moriniere;FRH_CONO;Côtiers normands;H;FRH;La Seine et les cours d'eau côtiers normands;;;;2;Station qualité située sur un cours d'eau;;2009-02-04;;2019-12-02;;Amont du plan d'eau de la Hogue;;;;;;;
03271661;LA HOGUE A SAINT-BERTHEVIN-LA-TANNIERE 1;;406522;6819863;26;RGF93 / Lambert 93;53202;Saint-Berthevin-la-Tannière;53;Mayenne;52;Pays de la Loire;HR347-I9143000;FRHR347-I9143000;ruisseau de la moriniere;FRH_CONO;Côtiers normands;H;FRH;La Seine et les cours d'eau côtiers normands;;;;2;Station qualité située sur un cours d'eau;;2009-02-04;;2020-10-26;;Aval du plan d'eau de la Hogue;;;;;;;
03271654;LA CHEVAUCHERIE A MONTAUDIN 1;;405060.3;6817356.62;26;RGF93 / Lambert 93;53154;Montaudin;53;Mayenne;52;Pays de la Loire;HR347-I9141500;FRHR347-I9141500;cours d eau de la roche = chevaucherie;FRH_CONO;Côtiers normands;H;FRH;La Seine et les cours d'eau côtiers normands;;;;2;Station qualité située sur un cours d'eau;;2016-01-01;;2019-12-02;;Le moulin à drap, amont step;;;;;;;
